301.1415472831861, 1.1043968422966497
301.1415472831861, 1.0818363549608714
301.1415472831861, 1.059275867625093
301.1415472831861, 1.0395354412062865
300.4350932473528, 1.0197878207545292
303.96736342651957, 1.0931453747605664
303.96736342651957, 1.070584887424788
303.96736342651957, 1.0480244000890098
303.26090939068627, 1.0367369623881695
305.38027149818635, 1.0198381789851894
305.38027149818635, 0.997277691649411
306.0867255340197, 1.0875268350254759
306.79317956985307, 1.0649735417226491
306.79317956985307, 1.0424130543868708
306.79317956985307, 0.9747315923795359
306.79317956985307, 0.9521711050437576
306.79317956985307, 0.9324306786249519
308.2060876415198, 1.0198669551169957
308.2060876415198, 0.9973064677812173
308.2060876415198, 0.9070645184381041
308.2060876415198, 0.8845040311023258
308.91254167735315, 1.0424346364857255
309.6189957131865, 0.9747603685113422
309.6189957131865, 0.9521998811755639
309.6189957131865, 0.9296393938397856
309.6189957131865, 0.8619579318324506
309.6189957131865, 0.8393974444966723
309.6189957131865, 0.816836957160894
310.32544974901987, 0.9973280498800721
311.0319037848533, 0.9070932945699095
311.0319037848533, 0.8845328072341312
311.0319037848533, 0.7942908578910179
311.0319037848533, 0.7717303705552396
311.7383578206866, 0.9296609759386394
312.6802965351311, 0.8619891059752396
312.44481185652, 0.8337860987945334
312.44481185652, 0.811225611458755
312.6802965351311, 0.749186669296348
313.1512658923533, 0.8958346330008755
313.8577199281867, 0.7830393903549355
313.8577199281867, 0.7153579283476006
313.8577199281867, 0.695617501928794
314.56417396402003, 0.8281675590594437
314.56417396402003, 0.8056070717236654
315.27062799985345, 0.7604932910850604
315.27062799985345, 0.737932803749282
315.27062799985345, 0.6730714026589188
316.68353607152017, 0.715386704479406
316.68353607152017, 0.6928262171436277
316.68353607152017, 0.6505253033890428
317.3899901073535, 0.7379543858481359
318.331928821798, 0.6702825158847361
318.80289817902025, 0.7041280429103711
319.5093522148536, 0.6364537749359878
320.9222602865203, 0.6759490158395032
320.9222602865203, 0.6533885285037249
320.9222602865203, 0.6223678584170296
323.74807642985377, 0.6590574264694746
323.74807642985377, 0.6364969391336963
323.74807642985377, 0.6167565127148906
326.57389257318727, 0.6590862026012809
326.57389257318727, 0.6365257152655026
326.57389257318727, 0.6196053497636695
329.3997087165207, 0.6478347350651976
329.3997087165207, 0.6252742477294193
332.2255248598542, 0.6591437548648926
332.2255248598542, 0.6365832675291143
332.2255248598542, 0.6196629020272812
335.05134100318764, 0.6817330183324763
335.05134100318764, 0.659172530996698
335.05134100318764, 0.6366120436609197
336.69973375346547, 0.7268707790809197
336.46424907485437, 0.6986677719002135
338.1126418251322, 0.783286385486269
337.8771571465211, 0.755083378305561
338.1126418251322, 0.6723639894186926
337.17070311068767, 0.6535539912616084
339.5255498967989, 0.8397019918916175
339.2900652181878, 0.8114989847109104
339.5255498967989, 0.726899555212726
339.2900652181878, 0.6986965480320189
340.7029732898545, 0.8735547129502041
340.7029732898545, 0.7833127636070909
340.7029732898545, 0.7607522762713126
342.35136604013235, 0.9638134483702041
342.11588136152125, 0.935610441189497
342.11588136152125, 0.9130499538537187
342.11588136152125, 0.8904894665179404
342.35136604013235, 0.8510110116913125
342.11588136152125, 0.8228080045106054
342.11588136152125, 0.8002475171748271
341.4094273256879, 0.7438391048024302
343.52878943318797, 0.9976661694287898
342.8223353973546, 0.7776942238720004
344.9416975048547, 1.0202410448304713
344.9416975048547, 0.9751200701589147
344.9416975048547, 0.9525595828231364
344.9416975048547, 0.929999095487358
344.9416975048547, 0.9074386081515797
344.2352434690214, 0.8848709267828498
344.2352434690214, 0.8623104394470715
344.2352434690214, 0.8397499521112932
346.5900902551325, 1.0428183182431363
346.5900902551325, 0.9976973435715797
347.7675136481881, 1.0992315266375021
347.7675136481881, 1.0766710393017238
347.7675136481881, 0.9638686026228322
347.7675136481881, 0.9413081152870539
349.1804217198549, 1.0541249400318478
349.1804217198549, 1.0315644526960694
349.1804217198549, 1.0090039653602911
349.1804217198549, 0.9864434780245128
349.1804217198549, 0.9244021378511222
350.5933297915216, 1.0992603027693075
350.5933297915216, 1.0766998154335292
350.5933297915216, 0.9638973787546377
350.5933297915216, 0.9413368914188593
352.24172254179945, 1.0541561141746376
352.00623786318835, 1.0259531069939305
352.00623786318835, 1.0033926196581522
352.00623786318835, 0.9808321323223739
352.24172254179945, 0.9187931901599677
352.00623786318835, 0.8905901829792606
352.00623786318835, 0.8680296956434823
352.00623786318835, 0.845469208307704
352.00623786318835, 0.8229087209719257
351.299783827355, 0.8116212832710854
353.41914593485507, 0.9526459112185544
353.41914593485507, 0.7947224998681062
353.41914593485507, 0.7721620125323279
353.41914593485507, 0.7524215861135222
354.1255999706884, 1.0203345672588409
354.1255999706884, 0.9977740799230626
354.1255999706884, 0.9752135925872842
355.06753868513294, 0.9301022099596628
354.83205400652184, 0.9018992027789556
354.83205400652184, 0.8793387154431773
354.83205400652184, 0.856778228107399
354.83205400652184, 0.8342177407716207
354.83205400652184, 0.8116572534358424
355.06753868513294, 0.7270578239376579
354.83205400652184, 0.6988548167569508
354.1255999706884, 0.6875673790561114
356.48044675679967, 0.7834734303430064
356.24496207818856, 0.7552704231622993
356.48044675679967, 0.6706709936641149
356.24496207818856, 0.6424679864834086
356.24496207818856, 0.6199074991476303
355.53850804235515, 0.6086200614467892
356.95141611402187, 0.8173189573686415
357.8933548284664, 0.7270866000694634
357.6578701498553, 0.6988835928887571
357.8933548284664, 0.5917236760547935
358.3643241856886, 0.7609321270950993
359.070778221522, 0.6706973717849376
359.070778221522, 0.6481368844491593
359.070778221522, 0.625576397113381
359.070778221522, 0.557894935106046
359.070778221522, 0.5381545086872395
359.77723225735537, 0.6932650531536675
360.7191709717998, 0.6030326958544894
360.4836862931887, 0.5748296886737823
360.7191709717998, 0.5127907465113761
361.89659436485545, 0.5466434675699618
362.6030484006888, 0.5692111489386917
363.30950243652217, 0.5240973683000867
363.30950243652217, 0.5015368809643084
363.30950243652217, 0.47897639362853006
363.30950243652217, 0.45923596720972437
364.0159564723555, 0.5466650496688166
365.4288645440223, 0.5128387067310518
366.1353185798556, 0.49028541342822507
366.1353185798556, 0.46772492609244676
366.1353185798556, 0.44516443875666845
366.1353185798556, 0.42542401233786276
368.25468068735574, 0.4677465081913015
368.96113472318905, 0.44519321488847474
368.96113472318905, 0.42263272755269643
368.96113472318905, 0.40289230113389074
371.78695086652255, 0.4283016255184462
371.78695086652255, 0.4057411381826679
371.78695086652255, 0.38318065084688957
374.612767009856, 0.4057699143144742
374.612767009856, 0.38320942697869587
374.612767009856, 0.3634690005598902
377.4385831531895, 0.38887832494444563
377.4385831531895, 0.3663178376086673
377.4385831531895, 0.34657741118986163
380.2643992965229, 0.37198673557441886
380.2643992965229, 0.34942624823864055
379.5579452606895, 0.3381388105377994
383.09021543985637, 0.366375389872279
383.09021543985637, 0.3438149025365007
383.09021543985637, 0.32689453703466764
385.9160315831898, 0.3551239223361966
385.9160315831898, 0.3325634350004183
388.74184772652325, 0.355152698468002
388.74184772652325, 0.3325922111322237
388.74184772652325, 0.31567184563038975
391.5676638698567, 0.3439012309319187
391.5676638698567, 0.3213407435961404
391.5676638698567, 0.30442037809430733
394.3934800131902, 0.3439300070637241
394.3934800131902, 0.3213695197279458
394.3934800131902, 0.30444915422611274
397.2192961565236, 0.3326785395276417
397.2192961565236, 0.3101180521918634
400.0451122998571, 0.3327073156594471
400.0451122998571, 0.3101468283236688
402.87092844319056, 0.3327360917912534
402.87092844319056, 0.3101756044554751
405.696744586524, 0.3327648679230588
405.696744586524, 0.3102043805872805
408.52256072985745, 0.3327936440548651
408.52256072985745, 0.3102331567190868
411.3483768731909, 0.3328224201866705
411.3483768731909, 0.3102619328508922
414.1741930165244, 0.3328511963184768
414.1741930165244, 0.3102907089826985
417.2354938384689, 0.3328823704612658
417.0000091598578, 0.3074994241975313
419.8258253031913, 0.34418899224997723
419.8258253031913, 0.3216285049141989
419.8258253031913, 0.30470813941236585
422.65164144652476, 0.35549801204967224
422.65164144652476, 0.33293752471389393
422.65164144652476, 0.31601715921206
425.4774575898582, 0.35552678818147854
425.4774575898582, 0.3329663008457002
425.4774575898582, 0.31604593534386627
428.30327373319165, 0.35555556431328394
428.30327373319165, 0.33299507697750563
428.30327373319165, 0.3160747114756717
431.1290898765251, 0.35558434044509024
431.1290898765251, 0.33302385310931193
431.1290898765251, 0.316103487607478
433.9549060198586, 0.35561311657689565
433.9549060198586, 0.33305262924111734
433.9549060198586, 0.3161322637392834
436.780722163192, 0.34436164904081146
436.780722163192, 0.32180116170503315
438.19363023485874, 0.3048951842691032
439.60653830652547, 0.34439042517261775
439.60653830652547, 0.32182993783683944
441.0194463781922, 0.3049239604009095
442.4323544498589, 0.34441920130442316
442.4323544498589, 0.32185871396864485
443.8452625215256, 0.30495273653271493
445.2581705931924, 0.34444797743622946
445.2581705931924, 0.32188749010045115
446.6710786648591, 0.30780157358149296
448.08398673652584, 0.33319650990014615
449.49689480819256, 0.310650410630271
450.9098028798593, 0.33322528603195245
452.322710951526, 0.3106791867620773
453.7356190231927, 0.33325406216375786
455.14852709485945, 0.3107079628938827
456.5614351665262, 0.33328283829556415
457.97434323819294, 0.310736739025689
459.38725130985966, 0.33331161442736956
460.8001593815264, 0.3107655151574944
462.2130674531931, 0.33334039055917586
463.6259755248598, 0.3107942912893007
465.03888359652655, 0.33336916669098127
466.6872763468044, 0.31270550604340475
467.86469973986004, 0.3446781864906763
469.27760781152676, 0.3221320872208011
469.27760781152676, 0.30521172171896804
470.6905158831935, 0.3447069626224817
472.1034239548602, 0.3221608633526065
472.1034239548602, 0.30524049785077345
473.5163320265269, 0.344735738754288
474.92924009819365, 0.3221896394844128
474.92924009819365, 0.30526927398257975
476.34214816986037, 0.3447645148860934
477.75505624152714, 0.3222184156162182
477.0486022056937, 0.3052908560814336
479.40344899180496, 0.34479568902888325
480.5808723848606, 0.31378700899710843
481.9937804565273, 0.3561023108175947
481.9937804565273, 0.3335418234818164
483.406688528194, 0.31663584604588557
484.81959659986074, 0.356131086949401
484.81959659986074, 0.3335705996136227
487.6454127431942, 0.3561598630812064
487.6454127431942, 0.3335993757454281
490.4712288865277, 0.3674688828809014
490.4712288865277, 0.3449083955451231
490.4712288865277, 0.32798803004329
493.2970450298611, 0.3674976590127068
493.2970450298611, 0.3449371716769285
496.35834585180567, 0.36752883315549667
496.12286117319456, 0.34214588689176306
498.948677316528, 0.39011569861209683
498.948677316528, 0.3675552112763185
498.948677316528, 0.35063484577448545
502.0099781384726, 0.3901468727548867
501.7744934598615, 0.3647639264911531
504.60030960319494, 0.41273373821148684
504.60030960319494, 0.39017325087570853
504.60030960319494, 0.37043282445690284
507.6616104251395, 0.4240451560221663
507.4261257465284, 0.3986622097584318
506.719671710695, 0.3845547111406189
510.487426568473, 0.44663441948975
510.2519418898619, 0.4184314123090438
509.54548785402847, 0.40150385277425826
513.3132427118064, 0.45794343928944503
513.0777580331953, 0.4325604930257114
512.371303997362, 0.4184529944078985
515.9035741765288, 0.4805303047460452
515.9035741765288, 0.4579698174102669
515.1971201406955, 0.435402136041537
518.7293903198622, 0.4918393245457411
518.7293903198622, 0.4692788372099628
518.0229362840289, 0.45235127767517724
521.5552064631956, 0.4918681006775465
521.5552064631956, 0.4693076133417682
524.3810226065291, 0.4918968768093528
524.3810226065291, 0.4693363894735745
526.029415356807, 0.45055276943731215
527.2068387498625, 0.4806454092732686
528.8552315001405, 0.458101708014377
528.6197468215294, 0.42989870083367077
531.4455629648628, 0.4524879643012545
531.4455629648628, 0.4299274769654762
531.4455629648628, 0.40736698962969786
534.2713791081962, 0.4355963749312268
534.2713791081962, 0.4130358875954485
534.2713791081962, 0.39611552209361545
537.0971952515297, 0.4243449073951435
537.0971952515297, 0.4017844200593652
539.9230113948631, 0.43565392719483853
539.9230113948631, 0.4130934398590602
539.9230113948631, 0.39617307435722715
542.9843122168077, 0.4582455886734058
542.7488275381966, 0.4300425814926996
542.7488275381966, 0.4103021550738939
545.57464368153, 0.48083245413000686
545.57464368153, 0.45827196679422855
545.57464368153, 0.43571147945845023
544.8681896456967, 0.4187839199236656
546.9875517531968, 0.5034073295316874
548.4004598248634, 0.5259822049333689
548.4004598248634, 0.48086123026181227
548.4004598248634, 0.4611208038430066
550.0488525751414, 0.5485594783460339
550.0488525751414, 0.5034385036744773
551.2262759681969, 0.5824121994046214
552.8746687184748, 0.6275499601530647
552.6391840398637, 0.5993469529723576
552.8746687184748, 0.5598684981457298
552.6391840398637, 0.5316654909650227
551.9327300040303, 0.514737931430238
551.9327300040303, 0.4978175659284041
554.2875767901415, 0.661405079222634
555.7004848618083, 0.7178206856279834
555.4650001831972, 0.6896176784472772
555.7004848618083, 0.6275787362848702
555.4650001831972, 0.5993757291041639
555.4650001831972, 0.5796353026853573
554.7585461473639, 0.5598876822336001
554.7585461473639, 0.5429673167317661
557.1133929334751, 0.7967967793691102
556.8779082548639, 0.768593772188404
556.8779082548639, 0.7460332848526257
557.1133929334751, 0.6614338553544403
558.2908163265306, 0.8306495004276968
558.2908163265306, 0.7178470637488052
558.2908163265306, 0.6952865764130269
557.5843622906973, 0.6275979203727404
559.9392090768085, 0.9434687231834751
559.7037243981973, 0.915265716002768
559.7037243981973, 0.8927052286669896
559.7037243981973, 0.8701447413312113
559.7037243981973, 0.847584253995433
559.9392090768085, 0.8081057991688052
559.7037243981973, 0.7799027919880981
559.7037243981973, 0.7573423046523198
559.7037243981973, 0.7347818173165424
558.9972703623639, 0.6727332831102002
558.9972703623639, 0.6501727957744219
561.116632469864, 1.067563393585175
561.116632469864, 1.0450029062493966
561.116632469864, 1.0224424189136183
561.116632469864, 0.99988193157784
561.116632469864, 0.9773214442420617
560.4101784340307, 0.7122285240137156
562.5295405415308, 1.1126987563226347
562.5295405415308, 1.0901382689868564
562.5295405415308, 0.9547753449721865
562.5295405415308, 0.9322148576364082
562.5295405415308, 0.9096543703006299
562.5295405415308, 0.8870938829648516
562.5295405415308, 0.8645333956290733
561.8230865056973, 0.8419657142603434
561.8230865056973, 0.8194052269245651
561.8230865056973, 0.7968447395887868
561.8230865056973, 0.7799243740869528
564.1779332918086, 1.2706389537499696
563.9424486131975, 1.2424359465692625
563.9424486131975, 1.2198754592334842
563.9424486131975, 1.1973149718977059
563.9424486131975, 1.1747544845619275
563.9424486131975, 1.1521939972261492
563.9424486131975, 1.129633509890371
564.1779332918086, 1.0675945677279648
563.9424486131975, 1.0393915605472577
563.9424486131975, 1.0168310732114794
563.9424486131975, 0.994270585875701
563.9424486131975, 0.9717100985399227
565.5908413634754, 1.3721755348268738
565.3553566848643, 1.3439725276461676
565.3553566848643, 1.3214120403103893
565.3553566848643, 1.298851552974611
565.5908413634754, 1.101449686797535
564.6489026490308, 0.9435166834031516
564.6489026490308, 0.9265963179013177
566.7682647565309, 1.4285887432212396
566.7682647565309, 1.4060282558854613
566.7682647565309, 1.2706653318707914
566.7682647565309, 1.2481048445350131
566.7682647565309, 1.2255443571992348
566.7682647565309, 1.2029838698634565
566.7682647565309, 1.1804233825276782
566.7682647565309, 1.1578628951918999
566.7682647565309, 1.1353024078561216
566.0618107206976, 1.067613751815835
566.0618107206976, 1.0450532644800568
568.1811728281978, 1.518845080630256
568.1811728281978, 1.4962845932944777
568.1811728281978, 1.4737241059586994
568.1811728281978, 1.451163618622921
568.1811728281978, 1.3834821566155862
568.1811728281978, 1.3609216692798078
568.1811728281978, 1.3383611819440295
568.1811728281978, 1.3158006946082512
568.1811728281978, 1.293240207272473
569.8295655784756, 1.541422354042921
569.8295655784756, 1.4286199173640295
569.5940808998644, 1.4004169101833224
568.8876268640311, 1.2706869139696453
568.8876268640311, 1.248126426633867
568.8876268640311, 1.2255659392980887
571.2424736501423, 1.5075960111051554
571.0069889715312, 1.4793930039244492
571.0069889715312, 1.4568325165886709
571.0069889715312, 1.3778708109134472
570.3005349356978, 1.3553031295447173
572.4198970431978, 1.5583690976655769
572.4198970431978, 1.5358086103297985
572.655381721809, 1.428648693495835
572.4198970431978, 1.4004456863151287
573.8328051148646, 1.5076223892259781
573.8328051148646, 1.4850619018901998
573.8328051148646, 1.4625014145544215
573.8328051148646, 1.3722594652113083
575.2457131865312, 1.5471176301294927
575.2457131865312, 1.5245571427937143
575.4811978651425, 1.43995771329553
575.2457131865312, 1.4117547061148228
575.2457131865312, 1.3891942187790445
575.4811978651425, 1.3497157639524167
574.539259150698, 1.3327858064066476
576.6586212581981, 1.4963709216898948
576.6586212581981, 1.4738104343541165
576.6586212581981, 1.3158870230036683
576.6586212581981, 1.29332653566789
576.6586212581981, 1.2707660483321117
576.6586212581981, 1.2482055609963334
576.6586212581981, 1.225645073660555
576.6586212581981, 1.2059046472417494
577.3650752940314, 1.4512571410512898
577.3650752940314, 1.4286966537155115
578.0715293298648, 1.4005032385787404
578.0715293298648, 1.377942751242962
578.0715293298648, 1.3553822639071837
578.0715293298648, 1.3328217765714054
578.307014008476, 1.1805408850658852
578.0715293298648, 1.152337877885179
578.0715293298648, 1.1297773905494006
577.3650752940314, 1.1184899528485595
579.4844374015315, 1.304635555467585
579.4844374015315, 1.2820750681318067
579.4844374015315, 1.2595145807960284
579.4844374015315, 1.23695409346025
579.4844374015315, 1.2143936061244727
579.4844374015315, 1.101591169445581
579.4844374015315, 1.0790306821098028
579.4844374015315, 1.0564701947740245
579.4844374015315, 1.036729768355218
580.1908914373648, 1.3497637241720923
580.1908914373648, 1.327203236836314
580.8973454731982, 1.1918475068545966
580.8973454731982, 1.1692870195188183
580.8973454731982, 1.14672653218304
580.8973454731982, 1.1241660448472617
580.8973454731982, 1.0113636081683701
580.8973454731982, 0.9888031208325918
580.8973454731982, 0.9662426334968135
580.8973454731982, 0.9436821461610352
581.6037995090317, 1.236975675559104
581.6037995090317, 1.2144151882233265
582.310253544865, 1.1016199455773865
582.310253544865, 1.0790594582416082
582.310253544865, 1.05649897090583
582.310253544865, 1.0339384835700516
582.310253544865, 0.92113604689116
582.310253544865, 0.8985755595553817
582.310253544865, 0.8760150722196034
583.7231616165317, 1.0113923843001764
583.7231616165317, 0.9888318969643981
583.7231616165317, 0.9662714096286198
583.7231616165317, 0.9437109222928415
583.7231616165317, 0.8534689729497282
583.7231616165317, 0.8309084856139499
583.7231616165317, 0.8111680591951433
584.4296156523651, 1.0565205530046846
584.4296156523651, 1.0339600656689063
585.1360696881984, 0.9211648230229654
585.1360696881984, 0.8986043356871871
585.1360696881984, 0.8760438483514088
585.1360696881984, 0.7858018990082956
585.1360696881984, 0.7632414116725172
585.1360696881984, 0.7435009852537107
585.8425237240317, 0.9437325043916953
586.7844624384763, 0.8535001470925181
586.5489777598651, 0.8252971399118101
586.5489777598651, 0.8027366525760318
586.7844624384763, 0.7181372230778482
586.5489777598651, 0.6899342158971411
588.197370510143, 0.7745528294831958
587.9618858315318, 0.7463498223024896
587.9618858315318, 0.6702081775442377
588.6683398673653, 0.83095884384461
588.6683398673653, 0.8083983565088317
589.6102785818098, 0.7181659992096536
589.3747939031987, 0.6899629920289474
589.6102785818098, 0.6504845372023187
589.3747939031987, 0.6222815300216125
588.6683398673653, 0.6109940923207713
590.081247939032, 0.7520115262352887
591.0231866534765, 0.5940977069287756
590.7877019748653, 0.5715348215820129
591.4941560106987, 0.6956246959617456
592.2006100465321, 0.6730714026589188
592.2006100465321, 0.6505109153231405
592.2006100465321, 0.6279504279873622
593.8490027968099, 0.6054067267284706
593.6135181181987, 0.5772037195477644
593.6135181181987, 0.5546432322119861
593.6135181181987, 0.5320827448762078
595.0264261898656, 0.5123567065233043
595.7328802256989, 0.5828654234805635
596.4393342615322, 0.5603121301777358
596.4393342615322, 0.5377516428419575
596.4393342615322, 0.4926306681704009
598.0877270118101, 0.5152079415830659
598.0877270118101, 0.4700869669115093
599.9716044406991, 0.5039468820030475
600.6780584765324, 0.48139358870022075
600.6780584765324, 0.45883310136444244
600.6780584765324, 0.43627261402866413
602.3264512268104, 0.4174889939924027
602.7974205840326, 0.4701349271311859
603.5038746198659, 0.44758163382835914
605.1522673701438, 0.42503793256946754
604.9167826915326, 0.3968349253887613
607.742598834866, 0.419424188856345
607.742598834866, 0.3968637015205667
607.742598834866, 0.37712327510176014
610.5684149781996, 0.396892477652373
610.5684149781996, 0.3743319903165947
609.8619609423662, 0.3630445526157535
613.394231121533, 0.3912811319502332
613.394231121533, 0.36872064461445486
613.394231121533, 0.34898021819564917
616.2200472648665, 0.3743895425802064
616.2200472648665, 0.3518290552444281
615.5135932290331, 0.3405416175435869
619.0458634081999, 0.36877819687806657
619.0458634081999, 0.34621770954228825
619.0458634081999, 0.3292973440404552
621.8716795515334, 0.35752672934198415
621.8716795515334, 0.33496624200620584
624.6974956948668, 0.35755550547378956
624.6974956948668, 0.33499501813801125
624.6974956948668, 0.3180746526361773
627.5233118382002, 0.35758428160559586
627.5233118382002, 0.33502379426981754
627.5233118382002, 0.3181034287679836
630.3491279815337, 0.35761305773740126
630.3491279815337, 0.33505257040162295
630.3491279815337, 0.318132204899789
633.1749441248671, 0.35764183386920756
633.1749441248671, 0.33508134653342925
636.0007602682006, 0.3689508536689017
636.0007602682006, 0.34639036633312337
635.2943062323673, 0.3294628067983387
639.0620610901452, 0.38026227147958114
638.826576411534, 0.3520592642988749
638.1201223757007, 0.34077182659803373
641.8878772334787, 0.39157129127927526
641.6523925548676, 0.36618834501554165
640.9459385190341, 0.35208084639772874
644.478208698201, 0.4028779130679876
644.478208698201, 0.3803174257322093
644.478208698201, 0.3633970602303753
647.3040248415344, 0.402906689199793
647.3040248415344, 0.3803462018640147
647.3040248415344, 0.36342583636218073
650.1298409848679, 0.39729534349765494
650.1298409848679, 0.37473485616187663
650.1298409848679, 0.35781449066004267
652.9556571282014, 0.38604387596157075
652.9556571282014, 0.36348338862579244
652.9556571282014, 0.34374296220698675
655.7814732715349, 0.3691522865915431
655.7814732715349, 0.3465917992557648
655.7814732715349, 0.3268513728369591
657.1943813432015, 0.3099453954010274
658.6072894148683, 0.35226069722151543
658.6072894148683, 0.3297002098857371
660.2556821651461, 0.30339642740421535
661.4331055582018, 0.3297289860175434
662.8460136298684, 0.3015427649137221
662.8460136298684, 0.2818023384949164
663.5524676657019, 0.324110446282452
665.6718297732019, 0.3015715410455284
665.6718297732019, 0.2790110537097501
667.0847378448686, 0.2621050762738202
668.4976459165354, 0.29596019534338946
668.4976459165354, 0.27339970800761115
671.3234620598688, 0.28470872780730705
671.3234620598688, 0.26214824047152874
670.6170080240354, 0.25086080277068756
674.1492782032022, 0.2790973821051672
674.1492782032022, 0.2565368947693898
675.562186274869, 0.24245097825043072
676.9750943465358, 0.2678459145690848
678.3880024182024, 0.24529981529920963
679.8009104898692, 0.2678746907008902
679.8009104898692, 0.22839383786327794
681.2138185615358, 0.24532859143101504
682.6267266332027, 0.26226334499875215
682.6267266332027, 0.23124267491205686
685.4525427765361, 0.2566519992966132
685.4525427765361, 0.23409151196083489
688.2783589198696, 0.2566807754284195
688.2783589198696, 0.23412028809264118
691.104175063203, 0.2567095515602249
691.104175063203, 0.2341490642244466
693.9299912065364, 0.2567383276920312
693.9299912065364, 0.2341778403562529
696.7558073498699, 0.2567671038238366
696.7558073498699, 0.2342066164880583
699.5816234932033, 0.2567958799556429
699.5816234932033, 0.2342353926198646
702.4074396365368, 0.2568246560874483
702.4074396365368, 0.23426416875167
701.7009856007035, 0.21733660921688447
705.2332557798702, 0.2568534322192546
705.2332557798702, 0.2342929448834763
706.646163851537, 0.2173869674475446
708.0590719232036, 0.25688220835106
708.0590719232036, 0.2343217210152817
710.8848880665371, 0.2569109844828663
710.8848880665371, 0.234350497147088
713.7107042098708, 0.2569397606146717
713.7107042098708, 0.2343792732788934
716.5365203532042, 0.256968536746478
716.5365203532042, 0.2344080494106997
719.5978211751487, 0.256999710889267
719.3623364965376, 0.2316167646255325
722.1881526398711, 0.26830633267797843
722.1881526398711, 0.24574584534220012
722.1881526398711, 0.22882547984036616
725.0139687832045, 0.26833510880978384
725.0139687832045, 0.24577462147400553
724.3075147473712, 0.22884706193922
727.839784926538, 0.26836388494158925
727.839784926538, 0.24580339760581094
730.6656010698714, 0.26839266107339554
730.6656010698714, 0.24583217373761723
733.4914172132048, 0.26842143720520095
733.4914172132048, 0.24586094986942264
736.3172333565383, 0.26845021333700725
736.3172333565383, 0.24588972600122894
739.1430494998717, 0.26847898946881266
739.1430494998717, 0.24591850213303434
741.9688656432052, 0.26850776560061895
741.9688656432052, 0.24594727826484064
744.7946817865386, 0.26853654173242436
744.7946817865386, 0.24597605439664605
746.2075898582054, 0.22907007696071524
747.620497929872, 0.26856531786423066
747.620497929872, 0.24600483052845235
749.0334060015389, 0.22909885309252154
750.4463140732055, 0.26859409399603607
750.4463140732055, 0.24603360666025775
751.8592221448723, 0.22912762922432695
753.2721302165389, 0.26862287012784236
753.2721302165389, 0.24606238279206405
754.6850382882058, 0.22915640535613324
756.0979463598724, 0.26865164625964777
756.0979463598724, 0.24609115892386946
757.5108544315392, 0.22918518148793865
758.923762503206, 0.26868042239145407
758.923762503206, 0.24611993505567575
759.6302165390393, 0.22920676358679337
761.7495786465395, 0.2687091985232595
761.7495786465395, 0.24614871118748116
764.5753947898729, 0.26873797465506577
764.5753947898729, 0.24617748731928746
767.4012109332064, 0.2687667507868712
767.4012109332064, 0.24620626345109287
770.4625117551509, 0.26879792492966104
770.2270270765398, 0.24341497866592654
773.0528432198732, 0.2801045467183716
773.0528432198732, 0.25754405938259417
772.3463891840399, 0.24061649984780864
775.8786593632067, 0.2801333228501779
775.8786593632067, 0.25757283551440047
775.1722053273734, 0.24064527597961494
778.7044755065401, 0.2914423426498729
778.7044755065401, 0.2688818553140946
778.7044755065401, 0.25196148981226063
781.5302916498736, 0.28583099694773484
781.5302916498736, 0.2632705096119565
780.8238376140403, 0.25198307191111535
784.356107793207, 0.2914998949134846
784.356107793207, 0.2689394075777063
784.356107793207, 0.25201904207587233
787.1819239365404, 0.3028089147131796
787.1819239365404, 0.2802484273774013
787.1819239365404, 0.26332806187556823
790.0077400798739, 0.302837690844985
790.0077400798739, 0.2802772035092067
790.0077400798739, 0.26335683800737364
792.8335562232073, 0.3028664669767913
792.8335562232073, 0.280305979641013
792.8335562232073, 0.26338561413917994
795.8948570451521, 0.3028976411195803
795.6593723665408, 0.2775146948558467
798.7206731884855, 0.3254869045871649
798.4851885098742, 0.29728389740645866
797.7787344740409, 0.2859964597056184
801.546489331819, 0.3367959243868599
801.3110046532079, 0.3114129781231254
800.6045506173743, 0.2973054795053125
804.3723054751524, 0.3481049441865549
804.1368207965413, 0.3199019370058487
803.4303667607078, 0.3086144993050084
807.1981216184859, 0.3594139639862499
806.9626369398748, 0.3340310177225154
806.2561829040412, 0.3199235191047025
810.0239377618193, 0.3707229837859449
809.7884530832082, 0.3453400375222113
809.0819990473747, 0.3312325389043984
812.6142692265416, 0.3933098492425451
812.6142692265416, 0.3707493619067668
812.6142692265416, 0.3510089354879611
815.6755700484862, 0.40462126705322454
815.4400853698751, 0.3764182598725183
814.7336313340418, 0.36513082217167714
818.5013861918196, 0.41593028685291866
818.2659015132085, 0.38772727967221243
817.5594474773752, 0.37643984197137215
821.091717656542, 0.4385171523095197
821.091717656542, 0.4159566649737414
821.091717656542, 0.39903629947190833
823.9175337998754, 0.4498261721092147
823.9175337998754, 0.4272656847734364
823.9175337998754, 0.41034531927160245
826.9788346218199, 0.4611375899198933
826.7433499432088, 0.4357546436561588
826.0368959073755, 0.42164714503834677
829.8046507651534, 0.4724466097195883
829.5691660865423, 0.44424360253888207
828.862712050709, 0.4329561648380409
832.3949822298757, 0.49503347517618845
832.3949822298757, 0.47247298784041014
832.3949822298757, 0.4555526223385762
835.2207983732092, 0.5063424949758835
835.2207983732092, 0.48378200764010515
835.2207983732092, 0.4668616421382721
838.2820991951539, 0.5176539127865629
838.0466145165426, 0.49227096652282754
837.3401604807093, 0.4781634679050155
841.1079153384874, 0.528962932586257
840.872430659876, 0.5035799863225234
840.1659766240427, 0.4894724877047105
843.6982468032095, 0.5515497980428572
843.6982468032095, 0.5289893107070789
843.6982468032095, 0.5092488842882732
846.5240629465432, 0.5628588178425531
846.5240629465432, 0.5402983305067748
846.5240629465432, 0.5233779650049408
849.3498790898766, 0.5628875939743585
849.3498790898766, 0.5403271066385802
852.17569523321, 0.5629163701061648
852.17569523321, 0.5403558827703865
853.5886033048766, 0.5206298444174831
855.0015113765435, 0.5573050244040259
855.0015113765435, 0.5347445370682475
856.6499041268212, 0.5065607139754107
857.8273275198769, 0.5347733132000538
858.062812198488, 0.4764944522602761
859.4757202701549, 0.506589490107217
860.8886283418215, 0.4727631471694531
860.6531436632104, 0.444560139988746
861.3595976990437, 0.5066086741950873
862.066051734877, 0.4191939798018982
863.4789598065438, 0.4784296471242193
863.4789598065438, 0.455869159788441
863.4789598065438, 0.4333086724526627
863.4789598065438, 0.4022880023659674
864.8918678782104, 0.38256196401306486
865.5983219140439, 0.4502506200533505
866.3047759498772, 0.42769732675052374
866.3047759498772, 0.40513683941474543
866.3047759498772, 0.36283592566016143
867.7176840215441, 0.38259074014487027
867.7176840215441, 0.34028982639028627
868.4241380573774, 0.40515842151360015
869.1305920932107, 0.3600446408749951
869.837046129044, 0.382612322243725
870.5435001648775, 0.33749854160511994
870.5435001648775, 0.3149380542693416
871.9564082365441, 0.35443329517285616
872.1918929151552, 0.2961544342330793
873.369316308211, 0.32624707406903575
875.0177090584887, 0.30370337281014415
874.7822243798776, 0.2755003656294379
877.608040523211, 0.29808962909702164
877.608040523211, 0.2755291417612433
877.608040523211, 0.25578871534243763
880.4338566665444, 0.281198039726994
880.4338566665444, 0.25863755239121655
880.4338566665444, 0.2417171868893826
883.2596728098779, 0.26994657219091067
883.2596728098779, 0.24738608485513236
884.6725808815447, 0.23048010741920155
886.0854889532113, 0.26997534832271697
886.0854889532113, 0.24741486098693866
887.4983970248782, 0.23050888355100696
888.911305096545, 0.2700041244545224
888.911305096545, 0.24744363711874406
890.3242131682116, 0.23053765968281326
891.7371212398784, 0.2700329005863287
891.7371212398784, 0.24747241325055036
892.4435752757117, 0.23055924178166798
894.5629373832119, 0.2700616767181341
894.5629373832119, 0.24750118938235577
897.3887535265453, 0.2700904528499404
897.3887535265453, 0.24752996551416206
900.2145696698788, 0.2813994726496345
900.2145696698788, 0.2588389853138571
899.5081156340455, 0.24191142577907154
903.0403858132122, 0.2927084924493304
903.0403858132122, 0.2701480051135521
902.3339317773789, 0.25322044557876655
905.8662019565456, 0.3040175122490245
905.8662019565456, 0.2814570249132462
905.1597479207123, 0.26452946537846156
908.9275027784902, 0.31532893005970397
908.6920180998791, 0.2899459837959695
907.9855640640458, 0.27583848517815657
911.7533189218236, 0.3266379498593981
911.5178342432125, 0.3012550035956645
910.8113802073792, 0.2871475049778516
914.5791350651571, 0.337946969659094
914.343650386546, 0.3125640233953595
913.6371963507127, 0.2984565247775466
917.1694665298794, 0.36053383511569415
917.1694665298794, 0.33797334777991583
917.1694665298794, 0.3210529822780819
920.2307673518239, 0.360565009258484
919.9952826732128, 0.3351820629947495
922.8210988165463, 0.37187163104719456
922.8210988165463, 0.34931114371141625
922.114644780713, 0.3323835841766316
925.6469149598797, 0.37190040717899997
925.6469149598797, 0.34933991984322166
928.4727311032132, 0.38320942697869587
928.4727311032132, 0.36064893964291755
928.4727311032132, 0.3437285741410836
931.2985472465466, 0.39451844677839
931.2985472465466, 0.3719579594426117
931.2985472465466, 0.352217533023806
934.1243633898803, 0.3945472229101963
934.1243633898803, 0.37198673557441797
933.4179093540467, 0.35505917603963333
937.1856642118246, 0.39457839705298614
936.9501795332137, 0.36919545078925164
940.0114803551583, 0.40588741685268115
939.7759956765472, 0.38050447058894665
939.0695416407136, 0.36639697197113374
942.6018118198806, 0.4284742823092813
942.6018118198806, 0.405913794973503
942.6018118198806, 0.38899342947166904
944.0147198915472, 0.45104915771096277
945.6631126418251, 0.4736264311236278
945.6631126418251, 0.42850545645207117
944.7211739273807, 0.4059353770723577
948.4889287851586, 0.5187761819269907
948.2534441065475, 0.4905731747462836
948.2534441065475, 0.4680126874105053
948.2534441065475, 0.4482722609916987
947.5469900707142, 0.4341647623738867
949.6663521782141, 0.5526289029855764
951.0792602498809, 0.5752037783872579
951.0792602498809, 0.5300828037157013
951.0792602498809, 0.507522316379923
951.0792602498809, 0.48778188996111727
950.3728062140476, 0.46803426950936
952.7276530001586, 0.6203415391357012
952.4921683215475, 0.592138531954995
952.7276530001586, 0.5526600771283663
953.9050763932144, 0.6767547475300661
953.9050763932144, 0.6541942601942878
953.198622357381, 0.5188241421466664
955.5534691434921, 0.6993320209427312
955.5534691434921, 0.6316505589353962
955.3179844648812, 0.60344755175469
955.3179844648812, 0.5808870644189117
954.6115304290477, 0.5639595048841262
954.6115304290477, 0.5470391393822922
956.7308925365478, 0.7783057166728744
956.7308925365478, 0.7557452293370961
956.7308925365478, 0.7331847420013178
956.7308925365478, 0.6655032799939828
958.1438006082146, 0.8460015667461125
958.1438006082146, 0.8234410794103342
958.1438006082146, 0.8008805920745559
958.1438006082146, 0.7106386427314426
958.1438006082146, 0.6880781553956643
957.4373465723811, 0.6429499866911561
957.4373465723811, 0.6203894993553778
959.5567086798812, 0.8911369294835714
959.5567086798812, 0.8685764421477931
959.5567086798812, 0.7783344928046798
959.5567086798812, 0.7557740054689015
959.5567086798812, 0.7332135181331232
958.8502546440479, 0.6711649839267819
961.2051014301592, 1.0039561522393496
960.9696167515481, 0.9757531450586434
960.9696167515481, 0.9531926577228651
960.9696167515481, 0.9306321703870868
960.9696167515481, 0.9080716830513085
961.2051014301592, 0.8460327408889015
960.9696167515481, 0.8178297337081952
960.9696167515481, 0.7952692463724169
960.2631627157145, 0.7106602248302964
960.2631627157145, 0.6937398593284634
962.3825248232147, 1.105490335305272
962.3825248232147, 1.0829298479694938
962.3825248232147, 1.0603693606337155
962.3825248232147, 1.0378088732979371
962.3825248232147, 0.879885461947489
961.6760707873814, 0.7670758312356458
964.0309175734926, 1.195749070725272
963.7954328948815, 1.167546063544565
963.7954328948815, 1.1449855762087866
963.7954328948815, 1.1224250888730083
964.0309175734926, 1.0152651720390455
963.7954328948815, 0.9870621648583384
963.7954328948815, 0.9645016775225601
963.7954328948815, 0.9419411901867818
963.7954328948815, 0.9193807028510035
963.088978859048, 0.9024531433162188
963.088978859048, 0.8573321686446622
963.088978859048, 0.8404118031428283
965.2083409665481, 1.3649647157985276
965.2083409665481, 1.3424042284627493
965.2083409665481, 1.319843741126971
965.2083409665481, 1.2972832537911927
965.2083409665481, 1.2747227664554144
965.2083409665481, 1.252162279119636
965.2083409665481, 1.2296017917838578
965.2083409665481, 1.0942388677691879
965.2083409665481, 1.0716783804334096
965.2083409665481, 1.0491178930976313
966.621249038215, 1.5003420278791006
966.621249038215, 1.4777815405433223
966.621249038215, 1.455221053207544
966.621249038215, 1.4326605658717657
966.621249038215, 1.4101000785359874
966.621249038215, 1.387539591200209
966.621249038215, 1.2070556925139826
966.621249038215, 1.1844952051782043
966.621249038215, 1.161934717842426
966.621249038215, 1.1393742305066477
966.621249038215, 1.1168137431708693
965.9147950023817, 1.0265645997948045
965.9147950023817, 1.0040041124590262
965.9147950023817, 0.9870837469571923
968.0341571098816, 1.6357193399596737
968.0341571098816, 1.6131588526238954
968.0341571098816, 1.590598365288117
968.0341571098816, 1.5680378779523387
968.0341571098816, 1.5454773906165604
968.0341571098816, 1.522916903280782
968.0341571098816, 1.364993491930334
968.0341571098816, 1.3424330045945556
968.0341571098816, 1.3198725172587773
968.0341571098816, 1.297312029922999
968.0341571098816, 1.2747515425872207
968.0341571098816, 1.2521910552514424
968.0341571098816, 1.229630567915664
967.3277030740483, 1.0942604498680426
969.4470651815484, 1.8838990887191374
969.4470651815484, 1.861338601383359
969.4470651815484, 1.8387781140475807
969.4470651815484, 1.8162176267118024
969.4470651815484, 1.7936571393760241
969.4470651815484, 1.7710966520402458
969.4470651815484, 1.7485361647044675
969.4470651815484, 1.7259756773686892
969.4470651815484, 1.7034151900329113
969.4470651815484, 1.680854702697133
969.4470651815484, 1.6582942153613547
969.4470651815484, 1.500370804010907
969.4470651815484, 1.4778103166751286
969.4470651815484, 1.4552498293393503
969.4470651815484, 1.432689342003572
969.4470651815484, 1.4101288546677937
969.4470651815484, 1.3875683673320154
968.7406111457151, 1.2070772746128373
968.7406111457151, 1.184516787277059
970.859973253215, 2.064397375471267
970.859973253215, 2.0418368881354887
970.859973253215, 2.0192764007997104
970.859973253215, 1.996715913463932
970.859973253215, 1.9741554261281538
970.859973253215, 1.9515949387923754
970.859973253215, 1.9290344514565971
970.859973253215, 1.9064739641208188
970.859973253215, 1.6357481160914795
970.859973253215, 1.6131876287557012
970.859973253215, 1.590627141419923
970.859973253215, 1.5680666540841446
970.859973253215, 1.5455061667483658
970.859973253215, 1.5229456794125875
970.1535192173817, 1.3650150740291878
970.1535192173817, 1.3424545866934094
970.1535192173817, 1.3198940993576311
970.1535192173817, 1.3029737338557972
972.2728813248818, 2.312577124230731
972.2728813248818, 2.290016636894953
972.2728813248818, 2.2674561495591745
972.2728813248818, 2.244895662223396
972.2728813248818, 2.222335174887618
972.2728813248818, 2.1997746875518396
972.2728813248818, 2.1772142002160613
972.2728813248818, 2.154653712880283
972.2728813248818, 2.1320932255445046
972.2728813248818, 2.1095327382087263
972.2728813248818, 2.086972250872948
972.2728813248818, 1.8839278648509432
972.2728813248818, 1.861367377515165
972.2728813248818, 1.8388068901793866
972.2728813248818, 1.8162464028436083
972.2728813248818, 1.79368591550783
972.2728813248818, 1.7711254281720517
972.2728813248818, 1.7485649408362733
972.2728813248818, 1.726004453500495
972.2728813248818, 1.7034439661647172
972.2728813248818, 1.6808834788289388
972.2728813248818, 1.6583229914931605
971.5664272890485, 1.5003923861097608
971.5664272890485, 1.4778318987739825
973.9212740751595, 2.673561707680071
973.6857893965484, 2.6453587004993637
973.6857893965484, 2.6227982131635854
973.6857893965484, 2.600237725827807
973.6857893965484, 2.577677238492029
973.6857893965484, 2.5551167511562505
973.6857893965484, 2.532556263820472
973.6857893965484, 2.509995776484694
973.6857893965484, 2.4874352891489155
973.6857893965484, 2.4648748018131372
973.6857893965484, 2.442314314477359
973.6857893965484, 2.4197538271415806
973.6857893965484, 2.3971933398058023
973.6857893965484, 2.374632852470024
973.6857893965484, 2.3520723651342457
973.6857893965484, 2.3295118777984674
973.9212740751595, 2.0644285496140564
973.6857893965484, 2.0362255424333497
973.6857893965484, 2.0136650550975714
973.6857893965484, 1.9911045677617931
973.6857893965484, 1.9685440804260148
973.6857893965484, 1.9459835930902365
973.6857893965484, 1.9234231057544582
973.6857893965484, 1.9008626184186799
972.9793353607151, 1.6357696981903338
972.9793353607151, 1.6188493326884998
975.3341821468264, 2.933021700107424
975.0986974682153, 2.9048186929267175
975.0986974682153, 2.882258205590939
975.0986974682153, 2.859697718255161
975.0986974682153, 2.8371372309193825
975.0986974682153, 2.814576743583604
975.0986974682153, 2.792016256247826
975.0986974682153, 2.7694557689120476
975.0986974682153, 2.7468952815762693
975.0986974682153, 2.724334794240491
975.0986974682153, 2.7017743069047127
975.3341821468264, 2.301328054705632
975.0986974682153, 2.2731250475249247
975.0986974682153, 2.2505645601891464
975.0986974682153, 2.228004072853368
975.0986974682153, 2.20544358551759
975.0986974682153, 2.182883098181812
975.0986974682153, 2.1603226108460336
975.0986974682153, 2.1377621235102553
975.0986974682153, 2.115201636174477
975.0986974682153, 2.0926411488386987
974.392243432382, 1.8726692032819083
974.392243432382, 1.85010871594613
974.392243432382, 1.8275482286103517
974.392243432382, 1.8049877412745734
974.392243432382, 1.7880673757727399
976.5116055398821, 3.2827212438669067
976.5116055398821, 3.2601607565311284
976.5116055398821, 3.23760026919535
976.5116055398821, 3.2150397818595717
976.5116055398821, 3.1924792945237934
976.5116055398821, 3.169918807188015
976.5116055398821, 3.147358319852237
976.5116055398821, 3.1247978325164585
976.5116055398821, 3.10223734518068
976.5116055398821, 3.079676857844902
976.5116055398821, 3.0571163705091235
976.5116055398821, 3.0345558831733452
976.5116055398821, 3.011995395837567
976.5116055398821, 2.9894349085017886
976.5116055398821, 2.9668744211660103
976.5116055398821, 2.6735880858008927
976.5116055398821, 2.6510275984651144
976.5116055398821, 2.628467111129336
976.5116055398821, 2.6059066237935578
976.5116055398821, 2.5833461364577794
976.5116055398821, 2.560785649122001
976.5116055398821, 2.538225161786223
976.5116055398821, 2.5156646744504445
976.5116055398821, 2.493104187114666
976.5116055398821, 2.470543699778888
976.5116055398821, 2.4479832124431096
976.5116055398821, 2.4254227251073313
976.5116055398821, 2.402862237771553
976.5116055398821, 2.3803017504357746
976.5116055398821, 2.3577412630999963
976.5116055398821, 2.335180775764218
975.8051515040486, 2.070087855535872
978.1599982901598, 3.7113872893235813
977.9245136115487, 3.6831842821428746
977.9245136115487, 3.6606237948070963
977.9245136115487, 3.638063307471318
977.9245136115487, 3.6155028201355397
977.9245136115487, 3.5929423327997614
977.9245136115487, 3.570381845463983
977.9245136115487, 3.5478213581282048
977.9245136115487, 3.5252608707924264
977.9245136115487, 3.502700383456648
977.9245136115487, 3.48013989612087
977.9245136115487, 3.4575794087850915
977.9245136115487, 3.435018921449313
977.9245136115487, 3.412458434113535
977.9245136115487, 3.3898979467777566
977.9245136115487, 3.3673374594419783
977.9245136115487, 3.3447769721062
977.9245136115487, 3.3222164847704216
977.9245136115487, 3.2996559974346433
978.1599982901598, 2.944330719907119
977.9245136115487, 2.9161277127264125
977.9245136115487, 2.893567225390634
977.9245136115487, 2.871006738054856
977.9245136115487, 2.8484462507190775
977.9245136115487, 2.825885763383299
977.9245136115487, 2.803325276047521
977.9245136115487, 2.7807647887117426
977.9245136115487, 2.7582043013759643
977.9245136115487, 2.735643814040186
977.9245136115487, 2.7130833267044077
977.9245136115487, 2.6905228393686293
977.2180595757154, 2.3126274824613913
977.2180595757154, 2.290066995125613
977.2180595757154, 2.2675065077898346
977.2180595757154, 2.2449460204540563
977.2180595757154, 2.222385533118278
977.2180595757154, 2.1998250457824997
979.5729063618264, 4.0385287437582695
979.3374216832156, 4.010325736577563
979.3374216832156, 3.9877652492417845
979.3374216832156, 3.9652047619060062
979.3374216832156, 3.942644274570228
979.3374216832156, 3.9200837872344496
979.3374216832156, 3.8975232998986713
979.3374216832156, 3.8749628125628934
979.3374216832156, 3.852402325227115
979.3374216832156, 3.829841837891337
979.3374216832156, 3.8072813505555585
979.3374216832156, 3.78472086321978
979.3374216832156, 3.762160375884002
979.3374216832156, 3.7395998885482236
979.5729063618264, 3.2714721743418074
979.3374216832156, 3.2432691671611003
979.3374216832156, 3.220708679825322
979.3374216832156, 3.1981481924895436
979.3374216832156, 3.1755877051537653
979.3374216832156, 3.1530272178179874
979.3374216832156, 3.130466730482209
979.3374216832156, 3.107906243146431
979.3374216832156, 3.0853457558106525
979.3374216832156, 3.062785268474874
979.3374216832156, 3.040224781139096
979.3374216832156, 3.0176642938033176
979.3374216832156, 2.9951038064675393
978.630967647382, 2.978176246932754
978.630967647382, 2.6623294242318583
978.630967647382, 2.63976893689608
978.630967647382, 2.6172084495603016
978.630967647382, 2.5946479622245233
978.630967647382, 2.572087474888745
978.630967647382, 2.5495269875529667
980.9858144334933, 4.365670198192958
980.7503297548822, 4.3374671910122515
980.7503297548822, 4.314906703676473
980.7503297548822, 4.292346216340695
980.7503297548822, 4.269785729004917
980.7503297548822, 4.247225241669138
980.7503297548822, 4.22466475433336
980.7503297548822, 4.202104266997582
980.7503297548822, 4.179543779661803
980.7503297548822, 4.156983292326025
980.7503297548822, 4.134422804990247
980.7503297548822, 4.111862317654468
980.7503297548822, 4.08930183031869
980.7503297548822, 4.066741342982912
980.9858144334933, 3.711416065455387
980.7503297548822, 3.6832130582746805
980.7503297548822, 3.660652570938902
980.7503297548822, 3.638092083603124
980.7503297548822, 3.6155315962673455
980.7503297548822, 3.5929711089315672
980.7503297548822, 3.570410621595789
980.7503297548822, 3.5478501342600106
980.7503297548822, 3.5252896469242323
980.7503297548822, 3.502729159588454
980.7503297548822, 3.4801686722526757
980.7503297548822, 3.4576081849168974
980.7503297548822, 3.435047697581119
980.7503297548822, 3.4124872102453407
980.7503297548822, 3.3899267229095624
980.7503297548822, 3.367366235573784
980.7503297548822, 3.344805748238006
980.7503297548822, 3.3222452609022275
980.7503297548822, 3.299684773566449
982.3987225051599, 4.737932627299203
982.163237826549, 4.709729620118496
982.163237826549, 4.687169132782718
982.163237826549, 4.66460864544694
982.163237826549, 4.6420481581111614
982.163237826549, 4.619487670775383
982.163237826549, 4.596927183439605
982.163237826549, 4.5743666961038265
982.163237826549, 4.551806208768048
982.163237826549, 4.52924572143227
982.163237826549, 4.506685234096492
982.163237826549, 4.484124746760713
982.163237826549, 4.461564259424935
982.163237826549, 4.439003772089157
982.163237826549, 4.416443284753378
982.163237826549, 4.3938827974176
982.3987225051599, 4.038557519890075
982.163237826549, 4.010354512709369
982.163237826549, 3.9877940253735904
982.163237826549, 3.965233538037812
982.163237826549, 3.9426730507020338
982.163237826549, 3.9201125633662555
982.163237826549, 3.897552076030477
982.163237826549, 3.874991588694699
982.163237826549, 3.8524311013589205
982.163237826549, 3.829870614023142
982.163237826549, 3.807310126687364
982.163237826549, 3.7847496393515856
982.163237826549, 3.7621891520158073
982.163237826549, 3.739628664680029
981.4567837907155, 3.271491358429678
981.4567837907155, 3.2489308710938998
981.4567837907155, 3.2263703837581215
981.4567837907155, 3.203809896422343
981.4567837907155, 3.181249409086565
981.4567837907155, 3.1586889217507865
981.4567837907155, 3.136128434415008
983.8116305768267, 4.907150670383443
983.5761458982156, 4.878947663202736
983.5761458982156, 4.856387175866958
983.5761458982156, 4.83382668853118
983.5761458982156, 4.8112662011954015
983.5761458982156, 4.788705713859623
983.5761458982156, 4.766145226523845
983.8116305768267, 4.365698974324763
983.5761458982156, 4.337495967144057
983.5761458982156, 4.314935479808279
983.5761458982156, 4.2923749924725
983.5761458982156, 4.269814505136722
983.5761458982156, 4.247254017800944
983.5761458982156, 4.224693530465165
983.5761458982156, 4.202133043129387
983.5761458982156, 4.179572555793609
983.5761458982156, 4.1570120684578304
983.5761458982156, 4.134451581122052
983.5761458982156, 4.111891093786274
983.5761458982156, 4.0893306064504955
983.5761458982156, 4.066770119114717
982.8696918623823, 3.711435249543258
982.8696918623823, 3.6888747622074796
982.8696918623823, 3.6663142748717013
982.8696918623823, 3.643753787535923
982.8696918623823, 3.6211933002001446
982.8696918623823, 3.5986328128643663
984.9890539698824, 5.008684853449364
984.9890539698824, 4.986124366113586
984.9890539698824, 4.963563878777808
984.9890539698824, 4.941003391442029
984.9890539698824, 4.7379590054200245
984.9890539698824, 4.715398518084246
984.9890539698824, 4.692838030748468
984.9890539698824, 4.6702775434126895
984.9890539698824, 4.647717056076911
984.9890539698824, 4.625156568741133
984.9890539698824, 4.602596081405355
984.9890539698824, 4.580035594069576
984.9890539698824, 4.557475106733799
984.9890539698824, 4.53491461939802
984.9890539698824, 4.512354132062242
984.9890539698824, 4.489793644726463
984.9890539698824, 4.467233157390686
984.9890539698824, 4.444672670054906
984.9890539698824, 4.422112182719129
984.9890539698824, 4.39955169538335
984.2825999340489, 4.032936582144002
986.401962041549, 5.053820216186824
986.401962041549, 5.031259728851046
986.401962041549, 4.918457292172154
986.401962041549, 4.895896804836376
986.401962041549, 4.8733363175005975
986.401962041549, 4.850775830164819
986.401962041549, 4.828215342829041
986.401962041549, 4.8056548554932625
986.401962041549, 4.783094368157484
986.401962041549, 4.760533880821706
985.6955080057157, 4.376998402080523
985.6955080057157, 4.354437914744745
985.6955080057157, 4.331877427408967
985.6955080057157, 4.309316940073188
985.6955080057157, 4.286756452737411
985.6955080057157, 4.2641959654016315
985.6955080057157, 4.241635478065854
985.6955080057157, 4.22471511256402
987.8148701132159, 5.0087136295811705
987.8148701132159, 4.986153142245392
987.8148701132159, 4.963592654909614
987.8148701132159, 4.941032167573836
987.8148701132159, 4.737987781551831
987.8148701132159, 4.7154272942160524
987.8148701132159, 4.692866806880274
987.8148701132159, 4.670306319544496
987.8148701132159, 4.6477458322087175
987.8148701132159, 4.625185344872939
987.8148701132159, 4.602624857537161
987.8148701132159, 4.580064370201383
987.8148701132159, 4.557503882865604
987.8148701132159, 4.534943395529826
987.8148701132159, 4.512382908194048
989.2277781848825, 5.053848992318629
989.2277781848825, 5.031288504982851
989.2277781848825, 4.9184860683039595
989.2277781848825, 4.895925580968182
989.2277781848825, 4.873365093632403
989.2277781848825, 4.8508046062966255
989.2277781848825, 4.828244118960846
989.2277781848825, 4.805683631625069
989.2277781848825, 4.78312314428929
989.2277781848825, 4.760562656953512
989.2277781848825, 4.492656869841145
990.8761709351604, 5.00874480372396
990.6406862565493, 4.980541796543253
990.6406862565493, 4.957981309207475
990.6406862565493, 4.935420821871697
990.8761709351604, 4.738018955694621
990.6406862565493, 4.7098159485139135
990.6406862565493, 4.687255461178135
990.6406862565493, 4.664694973842357
990.6406862565493, 4.642134486506579
990.6406862565493, 4.6195739991708
990.6406862565493, 4.597013511835022
990.6406862565493, 4.574453024499244
990.6406862565493, 4.551892537163465
990.6406862565493, 4.529332049827687
990.6406862565493, 4.506771562491909
990.8761709351604, 4.467293107665281
990.6406862565493, 4.439090100484574
990.6406862565493, 4.416529613148795
990.6406862565493, 4.393969125813017
990.6406862565493, 4.371408638477239
990.6406862565493, 4.3488481511414605
990.6406862565493, 4.326287663805683
989.934232220716, 4.315000226104842
992.0535943282159, 4.907234600767877
992.0535943282159, 4.884674113432098
992.0535943282159, 4.8621136260963205
992.0535943282159, 4.839553138760541
992.0535943282159, 4.816992651424764
992.0535943282159, 4.794432164088985
992.0535943282159, 4.771871676753207
992.0535943282159, 4.298101442701863
992.0535943282159, 4.275540955366084
992.0535943282159, 4.252980468030306
992.0535943282159, 4.230419980694528
992.0535943282159, 4.207859493358749
992.0535943282159, 4.185299006022971
992.0535943282159, 4.162738518687193
992.0535943282159, 4.1401780313514145
992.0535943282159, 4.117617544015636
992.0535943282159, 4.095057056679858
992.0535943282159, 4.0724965693440796
992.0535943282159, 4.049936082008301
992.7600483640495, 4.929802282136606
993.4665023998828, 4.749325577483331
993.4665023998828, 4.726765090147553
993.4665023998828, 4.7042046028117745
993.4665023998828, 4.681644115475996
993.4665023998828, 4.659083628140218
993.4665023998828, 4.63652314080444
993.4665023998828, 4.613962653468661
993.4665023998828, 4.591402166132883
993.4665023998828, 4.568841678797105
993.4665023998828, 4.546281191461327
993.4665023998828, 4.523720704125548
993.4665023998828, 4.501160216789771
993.4665023998828, 4.478599729453991
993.4665023998828, 4.456039242118214
993.4665023998828, 4.433478754782435
993.4665023998828, 4.410918267446657
993.4665023998828, 4.388357780110878
993.4665023998828, 4.365797292775101
993.4665023998828, 4.3432368054393224
993.4665023998828, 4.320676318103544
993.4665023998828, 4.027389982738426
993.4665023998828, 4.004829495402648
993.4665023998828, 3.9822690080668695
993.4665023998828, 3.959708520731091
993.4665023998828, 3.937148033395313
993.4665023998828, 3.9145875460595345
993.4665023998828, 3.892027058723756
993.4665023998828, 3.869466571387978
993.4665023998828, 3.8469060840521996
993.4665023998828, 3.8243455967164213
993.4665023998828, 3.801785109380643
993.4665023998828, 3.7792246220448646
993.7019870784939, 3.745386289052181
994.1729564357161, 4.794453746187839
994.1729564357161, 4.771893258852061
994.8794104715494, 4.298130218833668
994.8794104715494, 4.275569731497891
994.8794104715494, 4.2530092441621115
994.8794104715494, 4.230448756826334
994.8794104715494, 4.207888269490555
994.8794104715494, 4.185327782154777
994.8794104715494, 4.162767294818998
994.8794104715494, 4.140206807483221
994.8794104715494, 4.117646320147442
994.8794104715494, 4.095085832811664
994.8794104715494, 4.072525345475885
994.8794104715494, 4.0499648581401075
994.8794104715494, 3.711557548103433
994.8794104715494, 3.6889970607676545
994.8794104715494, 3.6664365734318762
994.8794104715494, 3.643876086096098
994.8794104715494, 3.6213155987603196
994.8794104715494, 3.5987551114245413
994.8794104715494, 3.576194624088763
994.8794104715494, 3.5536341367529847
994.8794104715494, 3.5310736494172064
994.8794104715494, 3.508513162081428
994.8794104715494, 3.4859526747456497
994.8794104715494, 3.4633921874098714
994.8794104715494, 3.440831700074093
994.8794104715494, 3.418271212738315
994.8794104715494, 3.3957107254025365
994.8794104715494, 3.373150238066758
994.8794104715494, 3.35058975073098
994.8794104715494, 3.3280292633952016
994.8794104715494, 3.3054687760594232
994.8794104715494, 3.282908288723645
994.8794104715494, 3.2603478013878666
994.8794104715494, 3.2377873140520883
995.5858645073829, 4.456060824217068
995.5858645073829, 4.4335003368812895
995.5858645073829, 4.410939849545511
995.5858645073829, 4.388379362209733
995.5858645073829, 4.365818874873955
995.5858645073829, 4.343258387538176
995.5858645073829, 4.320697900202398
996.5278032218273, 4.027421156881216
996.2923185432162, 3.999218149700509
996.2923185432162, 3.9766576623647305
996.2923185432162, 3.954097175028952
996.2923185432162, 3.931536687693174
996.2923185432162, 3.9089762003573956
996.2923185432162, 3.8864157130216173
996.2923185432162, 3.863855225685839
996.2923185432162, 3.8412947383500606
996.2923185432162, 3.8187342510142823
996.2923185432162, 3.796173763678504
996.2923185432162, 3.7736132763427257
996.2923185432162, 3.7510527890069474
996.2923185432162, 3.728492301671169
996.5278032218273, 3.2152436127931967
996.2923185432162, 3.1870406056124896
996.2923185432162, 3.1644801182767113
996.2923185432162, 3.1419196309409334
996.2923185432162, 3.119359143605155
996.2923185432162, 3.096798656269377
996.2923185432162, 3.0742381689335985
996.2923185432162, 3.05167768159782
996.2923185432162, 3.029117194262042
996.2923185432162, 3.0065567069262635
996.5278032218273, 2.9670782520996353
996.9987725790495, 4.140228389582075
996.9987725790495, 4.117667902246296
996.9987725790495, 4.083827171242628
996.9987725790495, 4.061266683906851
997.7052266148828, 3.700306080567349
997.7052266148828, 3.677745593231571
997.7052266148828, 3.6551851058957925
997.7052266148828, 3.632624618560014
997.7052266148828, 3.610064131224236
997.7052266148828, 3.5875036438884575
997.7052266148828, 3.5649431565526797
997.7052266148828, 3.5423826692169014
997.7052266148828, 3.519822181881123
997.7052266148828, 3.4972616945453447
997.7052266148828, 3.4747012072095664
997.7052266148828, 3.452140719873788
997.7052266148828, 3.42958023253801
997.7052266148828, 3.4070197452022315
997.7052266148828, 3.384459257866453
997.7052266148828, 3.361898770530675
997.7052266148828, 3.3393382831948966
997.7052266148828, 3.3167777958591182
997.7052266148828, 3.29421730852334
997.7052266148828, 3.2716568211875616
997.7052266148828, 3.2490963338517833
997.7052266148828, 2.933249511150887
997.7052266148828, 2.9106890238151086
997.7052266148828, 2.8881285364793303
997.7052266148828, 2.865568049143552
997.7052266148828, 2.8430075618077737
997.7052266148828, 2.8204470744719954
997.7052266148828, 2.797886587136217
997.7052266148828, 2.7753260998004388
997.7052266148828, 2.7527656124646604
997.7052266148828, 2.730205125128882
997.7052266148828, 2.707644637793104
997.7052266148828, 2.6850841504573255
997.7052266148828, 2.6625236631215476
997.7052266148828, 2.6399631757857693
997.7052266148828, 2.620222749366963
998.4116806507163, 3.880797173286527
998.4116806507163, 3.858236685950749
998.4116806507163, 3.8356761986149706
998.4116806507163, 3.8131157112791922
998.4116806507163, 3.790555223943414
998.4116806507163, 3.7679947366076356
998.4116806507163, 3.7454342492718573
998.4116806507163, 3.722873761936079
999.3536193651607, 3.2265526325928917
999.1181346865496, 3.1983496254121846
999.1181346865496, 3.1757891380764063
999.1181346865496, 3.1532286507406284
999.1181346865496, 3.13066816340485
999.1181346865496, 3.108107676069072
999.1181346865496, 3.0855471887332935
999.1181346865496, 3.062986701397515
999.1181346865496, 3.040426214061737
999.1181346865496, 3.0178657267259585
999.1181346865496, 2.9953052393901802
999.1181346865496, 2.972744752054402
999.1181346865496, 2.9501842647186236
999.3536193651607, 2.5948589871910994
999.1181346865496, 2.5666559800103923
999.1181346865496, 2.544095492674614
999.1181346865496, 2.5215350053388357
999.1181346865496, 2.4989745180030574
999.1181346865496, 2.476414030667279
999.1181346865496, 2.4538535433315007
999.1181346865496, 2.4312930559957224
999.1181346865496, 2.408732568659944
999.1181346865496, 2.386172081324166
999.1181346865496, 2.3636115939883875
999.1181346865496, 2.341051106652609
999.1181346865496, 2.318490619316831
999.1181346865496, 2.2959301319810526
999.1181346865496, 2.2733696446452742
999.1181346865496, 2.250809157309496
999.1181346865496, 2.2282486699737176
998.4116806507163, 2.216961232272877
999.8245887223829, 3.3732005962974183
999.8245887223829, 3.35064010896164
999.8245887223829, 3.3280796216258617
999.8245887223829, 3.3055191342900834
999.8245887223829, 3.282958646954305
999.8245887223829, 3.2603981596185267
1000.7665274368273, 2.922000441625787
1000.5310427582165, 2.893797434445081
1000.5310427582165, 2.8712369471093027
1000.5310427582165, 2.8486764597735243
1000.5310427582165, 2.826115972437746
1000.5310427582165, 2.8035554851019677
1000.5310427582165, 2.7809949977661894
1000.5310427582165, 2.758434510430411
1000.5310427582165, 2.735874023094633
1000.5310427582165, 2.7133135357588545
1000.5310427582165, 2.690753048423076
1000.5310427582165, 2.668192561087298
1000.5310427582165, 2.6456320737515195
1000.5310427582165, 2.6230715864157412
1000.7665274368273, 2.2000648468808817
1000.5310427582165, 2.1718618397001754
1000.5310427582165, 2.149301352364397
1000.5310427582165, 2.126740865028619
1000.5310427582165, 2.1041803776928405
1000.5310427582165, 2.081619890357062
1000.5310427582165, 2.059059403021284
999.8245887223829, 2.047771965320443
1000.5310427582165, 2.0054782455988103
1001.2374967940498, 2.9558459686514222
1001.9439508298831, 2.5948853653119213
1001.9439508298831, 2.572324877976143
1001.9439508298831, 2.5497643906403646
1001.9439508298831, 2.5272039033045863
1001.9439508298831, 2.504643415968808
1001.9439508298831, 2.4820829286330297
1001.9439508298831, 2.4595224412972514
1001.9439508298831, 2.436961953961473
1001.9439508298831, 2.4144014666256948
1001.9439508298831, 2.3918409792899165
1001.9439508298831, 2.369280491954138
1001.9439508298831, 2.34672000461836
1001.9439508298831, 2.3241595172825815
1001.9439508298831, 2.301599029946803
1001.9439508298831, 2.279038542611025
1001.9439508298831, 2.2564780552752466
1001.9439508298831, 2.2339175679394683
1001.9439508298831, 2.0308731819174635
1001.9439508298831, 1.9857522072459068
1001.9439508298831, 1.9631917199101285
1001.9439508298831, 1.9406312325743502
1001.9439508298831, 1.918070745238572
1001.9439508298831, 1.8955102579027936
1001.9439508298831, 1.8729497705670153
1001.9439508298831, 1.850389283231237
1001.9439508298831, 1.8278287958954587
1001.9439508298831, 1.8052683085596803
1001.9439508298831, 1.782707821223902
1001.9439508298831, 1.7601473338881237
1001.9439508298831, 1.7375868465523454
1001.9439508298831, 1.7150263592165675
1001.9439508298831, 1.6924658718807892
1001.9439508298831, 1.669905384545011
1002.6504048657164, 2.7528159706953206
1002.6504048657164, 2.7302554833595423
1002.6504048657164, 2.707694996023764
1002.6504048657164, 2.6851345086879856
1002.6504048657164, 2.6625740213522078
1002.6504048657164, 2.6400135340164295
1002.6504048657164, 2.617453046680651
1003.3568589015499, 2.211371468669593
1003.3568589015499, 2.188810981333815
1003.3568589015499, 2.1662504939980365
1003.3568589015499, 2.143690006662258
1003.3568589015499, 2.12112951932648
1003.3568589015499, 2.0985690319907015
1003.3568589015499, 2.0760085446549232
1003.3568589015499, 2.053448057319145
1003.3568589015499, 2.0083270826475883
1003.3568589015499, 1.6473592852751358
1003.3568589015499, 1.6247987979393574
1003.3568589015499, 1.6022383106035791
1003.3568589015499, 1.5796778232678008
1003.3568589015499, 1.5571173359320216
1003.3568589015499, 1.5345568485962433
1003.3568589015499, 1.511996361260465
1003.3568589015499, 1.4894358739246867
1003.3568589015499, 1.4668753865889084
1003.3568589015499, 1.44431489925313
1003.3568589015499, 1.4217544119173517
1003.3568589015499, 1.3991939245815734
1003.3568589015499, 1.3766334372457951
1004.0633129373832, 2.3016206120456575
1004.0633129373832, 2.279060124709879
1004.0633129373832, 2.256499637374101
1004.0633129373832, 2.2339391500383226
1004.0633129373832, 2.0308947640163177
1004.0633129373832, 1.9857737893447611
1004.0633129373832, 1.9632133020089828
1004.7697669732165, 1.940660008706156
1004.7697669732165, 1.9180995213703778
1004.7697669732165, 1.8955390340345994
1004.7697669732165, 1.8729785466988211
1004.7697669732165, 1.8504180593630428
1004.7697669732165, 1.8278575720272645
1004.7697669732165, 1.8052970846914862
1004.7697669732165, 1.7827365973557079
1004.7697669732165, 1.7601761100199296
1004.7697669732165, 1.7376156226841513
1004.7697669732165, 1.7150551353483734
1004.7697669732165, 1.692494648012595
1004.7697669732165, 1.6699341606768168
1004.7697669732165, 1.35408733797592
1004.7697669732165, 1.3315268506401416
1004.7697669732165, 1.3089663633043633
1004.7697669732165, 1.286405875968585
1004.7697669732165, 1.2666654495497793
1006.4181597234945, 1.6473904594179252
1006.1826750448834, 1.6191874522372185
1006.1826750448834, 1.5966269649014402
1006.1826750448834, 1.5740664775656619
1006.1826750448834, 1.5515059902298836
1006.1826750448834, 1.5289455028941052
1006.1826750448834, 1.506385015558327
1006.1826750448834, 1.4838245282225486
1006.1826750448834, 1.4612640408867703
1006.1826750448834, 1.438703553550992
1006.1826750448834, 1.4161430662152137
1006.1826750448834, 1.3935825788794354
1006.1826750448834, 1.371022091543657
1006.4181597234945, 1.241301687373915
1006.1826750448834, 1.2130986801932089
1006.1826750448834, 1.1905381928574306
1006.1826750448834, 1.1679777055216523
1006.1826750448834, 1.145417218185874
1006.1826750448834, 1.1228567308500956
1006.1826750448834, 1.1002962435143173
1006.1826750448834, 1.077735756178539
1006.1826750448834, 1.0551752688427607
1005.4762210090498, 1.0438878311419204
1006.8891290807167, 1.771477935786673
1006.8891290807167, 1.7489174484508947
1006.8891290807167, 1.7263569611151164
1006.8891290807167, 1.7037964737793385
1006.8891290807167, 1.6812359864435602
1007.59558311655, 1.3428358704398375
1007.59558311655, 1.3202753831040592
1007.59558311655, 1.297714895768281
1007.59558311655, 1.2751544084325026
1007.59558311655, 1.0269890477389412
1007.59558311655, 1.0044285604031629
1007.59558311655, 0.9818680730673846
1007.59558311655, 0.9593075857316062
1007.59558311655, 0.9367470983958279
1007.59558311655, 0.9141866110600496
1007.59558311655, 0.8916261237242713
1007.59558311655, 0.869065636388493
1007.59558311655, 0.8493252099696873
1008.3020371523833, 1.4556455011516798
1008.3020371523833, 1.4330850138159015
1008.3020371523833, 1.4105245264801232
1008.3020371523833, 1.3879640391443449
1008.3020371523833, 1.3654035518085665
1008.3020371523833, 1.252601115129675
1008.3020371523833, 1.2300406277938967
1009.0084911882168, 1.2018472126571256
1009.0084911882168, 1.1792867253213473
1009.0084911882168, 1.156726237985569
1009.0084911882168, 1.1341657506497906
1009.0084911882168, 1.1116052633140123
1009.0084911882168, 1.089044775978234
1009.0084911882168, 1.0664842886424557
1009.0084911882168, 1.0439238013066774
1009.2439758668279, 0.8239614477938231
1009.0084911882168, 0.795758440613116
1008.3020371523833, 0.7844710029122748
1010.4213992598834, 1.0157375802028579
1010.4213992598834, 0.9931770928670796
1010.4213992598834, 0.9706166055313012
1010.4213992598834, 0.9480561181955229
1010.4213992598834, 0.9254956308597446
1010.4213992598834, 0.9029351435239663
1010.4213992598834, 0.880374656188188
1010.4213992598834, 0.8578141688524097
1010.4213992598834, 0.7675722195092964
1010.4213992598834, 0.7450117321735181
1010.4213992598834, 0.7224512448377398
1010.4213992598834, 0.6998907575019615
1010.4213992598834, 0.6801503310831549
1011.1278532957169, 1.0834262362431444
1011.1278532957169, 1.060865748907366
1011.1278532957169, 1.0383052615715878
1011.8343073315502, 0.8352680695825345
1011.8343073315502, 0.8127075822467562
1011.8343073315502, 0.7901470949109779
1011.8343073315502, 0.654784170896308
1011.8343073315502, 0.6322236835605297
1011.8343073315502, 0.6096631962247514
1011.8343073315502, 0.5899227698059448
1012.5407613673835, 0.902956725622821
1012.5407613673835, 0.8803962382870427
1012.5407613673835, 0.8578357509512644
1013.2472154032168, 0.7676009956411027
1013.2472154032168, 0.7450405083053244
1013.2472154032168, 0.7224800209695461
1013.2472154032168, 0.6999195336337678
1013.2472154032168, 0.6773590462979895
1013.2472154032168, 0.5645566096190979
1013.2472154032168, 0.5448161832002913
1014.6601234748837, 0.6548129470281134
1014.6601234748837, 0.6322524596923351
1014.6601234748837, 0.6096919723565568
1014.6601234748837, 0.5871314850207785
1014.6601234748837, 0.5194500230134436
1014.6601234748837, 0.49688953567766525
1015.366577510717, 0.6999411157326216
1015.366577510717, 0.6773806283968433
1016.3085162251614, 0.5645877837618869
1016.0730315465503, 0.5363847765811807
1016.3085162251614, 0.47434583441877365
1016.0730315465503, 0.4461428272380674
1016.7794855823838, 0.5984333107875219
1017.7214242968282, 0.5082009534883438
1017.4859396182171, 0.426416788885164
1018.1923936540504, 0.5420464805139797
1018.8988476898837, 0.4743722125395964
1018.8988476898837, 0.45181172520381807
1018.8988476898837, 0.40669075053226145
1018.8988476898837, 0.38695032411345576
1019.6053017257173, 0.4969398939083254
1020.3117557615506, 0.429265625933942
1021.0182097973839, 0.4518333073026719
1021.9601485118283, 0.4067219246750504
1021.7246638332174, 0.3785189174943442
1021.7246638332174, 0.3559584301585659
1024.5504799765508, 0.3898279372940383
1024.5504799765508, 0.36726744995826
1024.5504799765508, 0.3447069626224817
1023.8440259407173, 0.3334195249216423
1027.3762961198843, 0.3672962260900663
1027.3762961198843, 0.344735738754288
1026.6698420840507, 0.3334483010534477
1030.4375969418288, 0.3616872783989118
1030.2021122632177, 0.3363043321351764
1033.2634130851623, 0.3729962981986059
1033.0279284065512, 0.3476133519348723
1032.3214743707179, 0.3335058533170594
1035.8537445498846, 0.39558316365520607
1035.8537445498846, 0.37302267631942776
1035.8537445498846, 0.35328224990062207
1038.679560693218, 0.39561193978701237
1038.679560693218, 0.37305145245123406
1041.5053768365515, 0.3956407159188178
1041.5053768365515, 0.37308022858303946
1041.5053768365515, 0.35051974124726115
1043.1537695868292, 0.3317361212109997
1044.331192979885, 0.378749126548791
1044.331192979885, 0.3561886392130127
1045.7441010515518, 0.3280024181091923
1045.7441010515518, 0.30544193077341397
1045.7441010515518, 0.2857015043546083
1047.1570091232184, 0.3449371716769285
1047.1570091232184, 0.2687955269186766
1048.8054018734963, 0.31675334858409254
1048.5699171948852, 0.2885503414033863
1048.8054018734963, 0.2490718865767576
1050.218309945163, 0.21524554363899373
1050.689279302385, 0.2942120453361854
1051.3957333382186, 0.27165875203335865
1051.3957333382186, 0.24909826469758034
1053.0441260884963, 0.22655456343868874
1052.8086414098852, 0.19835155625798162
1052.8086414098852, 0.1757910689222033
1055.6344575532187, 0.20966057605767663
1055.6344575532187, 0.18710008872189832
1055.6344575532187, 0.16453960138612
1055.6344575532187, 0.14761923588428694
1058.4602736965521, 0.175848621185815
1058.4602736965521, 0.1532881338500367
1058.4602736965521, 0.1307276465142584
1061.2860898398856, 0.153316909981843
1061.2860898398856, 0.13075642264606469
1061.2860898398856, 0.1110159962272581
1064.1119059832192, 0.13642532061181445
1064.1119059832192, 0.11386483327603614
1065.5248140548858, 0.09695885584010533
1066.9377221265527, 0.1308139749096764
1066.9377221265527, 0.10825348757389808
1069.763538269886, 0.12520262920753744
1069.763538269886, 0.10264214187175913
1071.1764463415527, 0.08855622535280006
1072.5893544132196, 0.11395116167145414
1074.0022624848862, 0.09140506240157809
1075.415170556553, 0.11397993780325955
1076.8280786282196, 0.09143383853338438
1076.8280786282196, 0.07451347303155043
1078.2409866998864, 0.11400871393506584
1079.8893794501641, 0.09146501267617424
1078.9474407357197, 0.07453505513040515
1082.4797109148865, 0.10277163446488569
1082.4797109148865, 0.08021114712910737
1085.541011736831, 0.10280280860767554
1085.30552705822, 0.07741986234394016
1088.1313432015536, 0.10846930856244175
1088.1313432015536, 0.08590882122666343
1087.42488916572, 0.07462138352582226
1091.192644023498, 0.10286036087128725
1090.957159344887, 0.07747741460755186
1093.7829754882205, 0.1141669826599978
1093.7829754882205, 0.0916064953242195
1093.7829754882205, 0.07468612982238554
1096.608791631554, 0.11419575879180321
1096.608791631554, 0.0916352714560249
1096.608791631554, 0.07471490595419095
1099.6700924534985, 0.11422693293459307
1099.4346077748874, 0.08884398667085858
1098.728153739054, 0.07473648805304567
1102.2604239182208, 0.12553355472330452
1102.2604239182208, 0.10297306738752621
1101.5539698823875, 0.08604550785274068
1105.3217247401653, 0.12556472886609438
1105.0862400615542, 0.10018178260235988
1108.1475408834988, 0.13687374866578939
1107.9120562048877, 0.111490802402054
1107.2056021690544, 0.0973833037842411
1110.7378723482211, 0.14818037045450083
1110.7378723482211, 0.12561988311872252
1110.0314183123878, 0.10869232358393699
1113.5636884915546, 0.15948939025419495
1113.5636884915546, 0.13692890291841664
1112.8572344557213, 0.12000134338363111
1116.389504634888, 0.17079841005389085
1116.389504634888, 0.14823792271811254
1116.389504634888, 0.13131755721627858
1119.4508054568325, 0.1708295841966807
1119.2153207782214, 0.14544663793294532
1122.0411369215549, 0.18213620598539126
1122.0411369215549, 0.15957571864961295
1122.0411369215549, 0.142655353147779
1124.8669530648883, 0.18216498211719667
1124.8669530648883, 0.15960449478141836
1124.8669530648883, 0.1426841292795844
1127.6927692082218, 0.17091351458111426
1127.6927692082218, 0.14835302724533594
1130.5185853515554, 0.17094229071291966
1130.5185853515554, 0.14838180337714135
1130.5185853515554, 0.1314614378753074
1133.3444014948889, 0.154050701342892
1133.3444014948889, 0.1314902140071137
1133.3444014948889, 0.11456984850527974
1136.1702176382223, 0.1427992338068078
1136.1702176382223, 0.1202387464710295
1136.1702176382223, 0.10331838096919643
1138.9960337815558, 0.1315477662707254
1138.9960337815558, 0.10898727893494708
1138.2895797457222, 0.09769984123410591
1141.8218499248892, 0.12593642056858645
1141.8218499248892, 0.10337593323280814
1141.8218499248892, 0.08645556773097418
1144.6476660682226, 0.11468495303250315
1144.6476660682226, 0.09212446569672483
1144.6476660682226, 0.07520410019489088
1147.473482211556, 0.10343348549641984
1147.473482211556, 0.08087299816064153
1148.8863902832227, 0.06396702072471072
1150.2992983548895, 0.0978221397942809
1150.2992983548895, 0.07526165245850258
1151.7122064265563, 0.05271555318862653
1153.125114498223, 0.09221079409214195
1153.125114498223, 0.06965030675636363
1154.5380225698898, 0.052744329320432826
1155.9509306415564, 0.09223957022394824
1155.9509306415564, 0.06967908288816993
1157.3638387132232, 0.052773105452238234
1158.7767467848898, 0.09226834635575365
1158.7767467848898, 0.06970785901997534
1160.4251395351678, 0.04904419837239882
1161.6025629282233, 0.08101687881967123
1163.01547099989, 0.05847077954979518
1163.01547099989, 0.041550414047961226
1164.4283790715567, 0.08104565495147664
1165.8412871432236, 0.05849955568160148
1165.8412871432236, 0.035939068345823166
1167.2541952148902, 0.08107443108328294
1168.667103286557, 0.058528331813406886
1168.667103286557, 0.035967844477628574
1170.0800113582236, 0.08110320721508835
1171.7284041085015, 0.058559505956196745
1171.4929194298904, 0.03317655969246225
1172.905827501557, 0.09241222701478247
1174.554220251835, 0.06986852575589175
1174.3187355732239, 0.041665518575184635
1173.6122815373906, 0.03037808087434346
1177.1445517165573, 0.0811751475446032
1177.1445517165573, 0.05861466020882489
1177.1445517165573, 0.036054172873046575
1179.9703678598908, 0.069923680008519
1179.9703678598908, 0.047363192672740695
1179.9703678598908, 0.03044282717090674
1182.7961840032242, 0.07559257797426966
1182.7961840032242, 0.05303209063849135
1182.7961840032242, 0.03329166421968566
1185.6220001465576, 0.06998123227213071
1185.6220001465576, 0.0474207449363524
1185.6220001465576, 0.030500379434518443
1188.447816289891, 0.07001000840393701
1188.447816289891, 0.047449521068158695
1188.447816289891, 0.03052915556632474
1191.2736324332247, 0.08131902820363202
1191.2736324332247, 0.058758540867853704
1191.2736324332247, 0.03619805353207539
1194.0994485765582, 0.08134780433543831
1194.0994485765582, 0.05878731699966
1194.0994485765582, 0.03622682966388169
1196.9252647198916, 0.07573645863329848
1196.9252647198916, 0.053175971297520164
1196.9252647198916, 0.033435544878714474
1199.751080863225, 0.07012511293116042
1199.751080863225, 0.047564625595382104
1199.751080863225, 0.030644260093548148
1202.5768970065585, 0.08143413273085542
1202.5768970065585, 0.05887364539507711
1202.5768970065585, 0.0363131580592988
1205.402713149892, 0.08146290886266172
1205.402713149892, 0.05890242152688341
1204.6962591140586, 0.04197486199209788
1208.2285292932254, 0.08149168499446713
1208.2285292932254, 0.058931197658688816
1211.28983011517, 0.08152285913725699
1211.0543454365588, 0.05331985195654987
1210.3478914007255, 0.04203241425570958
1213.8801615798923, 0.09282948092596754
1213.8801615798923, 0.07026899359018923
1213.8801615798923, 0.04770850625441092
1213.8801615798923, 0.030788140752576965
1216.7059777232257, 0.09285825705777384
1216.7059777232257, 0.07029776972199553
1216.7059777232257, 0.05055734330318984
1215.9995236873924, 0.030809722851431687
1219.5317938665592, 0.10416727685746885
1219.5317938665592, 0.08160678952169054
1219.5317938665592, 0.06186636310288396
1222.3576100098926, 0.10419605298927426
1222.3576100098926, 0.08163556565349595
1222.3576100098926, 0.06189513923468937
1225.183426153226, 0.10422482912108055
1225.183426153226, 0.08166434178530224
1225.183426153226, 0.06474397628346829
1228.0092422965597, 0.10425360525288596
1228.0092422965597, 0.08169311791710765
1228.0092422965597, 0.0647727524152737
1230.8350584398931, 0.10428238138469226
1230.8350584398931, 0.08172189404891395
1230.8350584398931, 0.06480152854707999
1233.6608745832266, 0.10431115751649767
1233.6608745832266, 0.08175067018071935
1233.6608745832266, 0.0648303046788854
1236.48669072656, 0.10433993364830396
1236.48669072656, 0.08177944631252565
1236.48669072656, 0.0648590808106917
1239.3125068698935, 0.10436870978010937
1239.3125068698935, 0.08180822244433106
1238.60605283406, 0.06488066290954642
1242.138323013227, 0.11567772957980438
1242.138323013227, 0.09311724224402607
1242.138323013227, 0.07619687674219211
1244.9641391565603, 0.11570650571160979
1244.9641391565603, 0.09314601837583147
1244.9641391565603, 0.07622565287399752
1247.7899552998938, 0.12701552551130568
1247.7899552998938, 0.10445503817552737
1247.7899552998938, 0.08471461175672079
1250.6157714432272, 0.1383245453109998
1250.6157714432272, 0.11576405797522149
1250.6157714432272, 0.0960236315564158
1253.4415875865607, 0.1383533214428061
1253.4415875865607, 0.11579283410702779
1253.4415875865607, 0.09887246860519383
1256.267403729894, 0.1383820975746115
1256.267403729894, 0.1158216102388332
1255.5609496940608, 0.09889405070404766
1259.0932198732276, 0.1496911173743074
1259.0932198732276, 0.1271306300385291
1259.0932198732276, 0.11021026453669514
1261.919036016561, 0.1497198935061128
1261.919036016561, 0.1271594061703345
1261.919036016561, 0.11023904066850054
1264.7448521598944, 0.16102891330580782
1264.7448521598944, 0.1384684259700295
1264.7448521598944, 0.1159079386342512
1267.5706683032279, 0.14977744576972452
1267.5706683032279, 0.1272169584339462
1267.5706683032279, 0.11029659293211225
1270.3964844465613, 0.1498062219015308
1270.3964844465613, 0.1272457345657525
1270.3964844465613, 0.11032536906391854
1273.222300589895, 0.14983499803333622
1273.222300589895, 0.1272745106975579
1273.222300589895, 0.11035414519572395
1276.0481167332284, 0.13858353049725292
1276.0481167332284, 0.1160230431614746
1278.8739328765619, 0.13861230662905832
1278.8739328765619, 0.11605181929328001
1278.8739328765619, 0.09913145379144606
1281.6997490198953, 0.13300096092692026
1281.6997490198953, 0.11044047359114195
1280.9932949840618, 0.09915303589030078
1284.5255651632287, 0.12738961522478132
1284.5255651632287, 0.104829127889003
1285.9384732348954, 0.08510308953609957
1287.3513813065622, 0.12177826952264237
1287.3513813065622, 0.09921778218686406
1288.7642893782288, 0.076671682916988
1290.1771974498956, 0.11052680198655906
1290.1771974498956, 0.08796631465078075
1293.003013593229, 0.104915456284421
1293.003013593229, 0.08235496894864269
1294.415921664896, 0.065448991512711
1295.8288297365625, 0.10494423241622641
1295.8288297365625, 0.0823837450804481
1297.4772224868402, 0.06172008443287158
1298.654645879896, 0.09369276488014311
1300.0675539515628, 0.07114666561026706
1300.0675539515628, 0.05140623919146137
1301.4804620232294, 0.09372154101194852
1303.1288547735073, 0.07117783975305692
1302.8933700948962, 0.04579489348932242
1305.7191862382297, 0.08248446154176836
1305.7191862382297, 0.05992397420599005
1305.7191862382297, 0.03736348687021174
1308.545002381563, 0.07687311583962941
1308.545002381563, 0.0543126285038511
1308.545002381563, 0.03457220208504541
1311.3708185248965, 0.07126177013749047
1311.3708185248965, 0.048701282801712154
1311.3708185248965, 0.028960856382906464
1314.19663466823, 0.07129054626929676
1314.19663466823, 0.04873005893351845
1314.19663466823, 0.026169571597740138
1314.19663466823, 0.009249206095906182
1317.0224508115634, 0.07131932240110217
1317.0224508115634, 0.04875883506532386
1317.0224508115634, 0.026198347729545546
1317.0224508115634, 0.00927798222771159
1319.8482669548969, 0.07134809853290847
1319.8482669548969, 0.048787611197130154
1319.8482669548969, 0.026227123861351842
1319.8482669548969, 0.009306758359517886
1322.6740830982303, 0.06009663099682516
1322.6740830982303, 0.03753614366104685
1322.6740830982303, 0.014975656325268538
1325.4998992415638, 0.04884516346074186
1325.4998992415638, 0.026284676124963546
1325.4998992415638, 0.0037241887891852343
1328.3257153848972, 0.048873939592547266
1328.3257153848972, 0.026313452256768954
1328.3257153848972, 0.0037529649209906424
1331.1515315282306, 0.03762247205646485
1331.1515315282306, 0.015061984720686539
1331.1515315282306, -0.0018583807811474173
1334.2128323501752, 0.03765364619925382
1333.977347671564, 0.009450639018546703
1333.2708936357308, -0.0018367986822935833
1336.8031638148975, 0.04896026798796527
1336.8031638148975, 0.026399780652186955
1336.8031638148975, 0.003839293316408643
1339.6289799582312, 0.048989044119770675
1339.6289799582312, 0.026428556783992363
1339.6289799582312, 0.003868069448214051
1342.4547961015646, 0.03773757658368826
1342.4547961015646, 0.015177089247909947
1342.4547961015646, -0.0017432762539240088
1345.280612244898, 0.03212623088154842
1345.280612244898, 0.009565743545770111
1344.5741582090645, -0.0017216941550701748
1348.1064283882315, 0.037795128847299964
1348.1064283882315, 0.015234641511521652
1348.1064283882315, -0.0016857239903123045
1349.519336459898, 0.08293049158475885
1349.519336459898, 0.060370004248980536
1350.2257904957316, 0.0378167109461538
1350.2257904957316, 0.015256223610375486
1350.2257904957316, -0.0016641418914584705
