PE UV       SUBTECH     SPECTRUM    ASCII       PEDS        4.00        	
-1	
normSep184-2-p5sds-1xdil2.asc	
12/6/2007	
44:50.0	
12/6/2007	
16:40.0	
Analyst	
	
200	
1	
Lambda 950	
950N7030103	
PerkinElmer UV WinLab 6.0.3.0730 / 1.61.00 Lambda 900	
	
0	
0	
3350/servo 860.8/2	
0	
0	
UV/VIS	
1	
1	
1	
"RBeamAtt,SBeamAtt,uv/vis/nir detector"	
0	
0	
0	
0	
Program	
Program	
3350/servo 860.8/2	
3350/0.2 860.8/0.2	
3350/0.2 860.8/0.2	
0	
1	
 	
 	
 	
0	
 	
860.8	
319.2	
860.8	
Front	
100	
 	
S:100 R:100	
 	
0	
0	
0	
 	
0	
 	
 	
 	
0	
 	
 	
0	
0	
0	
0	
0	
 	
 	
 	
 	
0	
0	
	
	
#HDR	
-1	
-1	
#GR	
nm	
A	
1	
0	
1350	
-1	
1151	
8	
6.537811	
0.084725	
#DATA	
360.00	0.51
361.00	0.51
362.00	0.51
363.00	0.50
364.00	0.50
365.00	0.50
366.00	0.49
367.00	0.49
368.00	0.49
369.00	0.49
370.00	0.49
371.00	0.49
372.00	0.49
373.00	0.49
374.00	0.49
375.00	0.49
376.00	0.48
377.00	0.48
378.00	0.48
379.00	0.48
380.00	0.48
381.00	0.47
382.00	0.47
383.00	0.47
384.00	0.47
385.00	0.46
386.00	0.46
387.00	0.45
388.00	0.45
389.00	0.45
390.00	0.44
391.00	0.44
392.00	0.44
393.00	0.43
394.00	0.43
395.00	0.43
396.00	0.42
397.00	0.42
398.00	0.42
399.00	0.42
400.00	0.42
401.00	0.42
402.00	0.42
403.00	0.42
404.00	0.42
405.00	0.42
406.00	0.42
407.00	0.42
408.00	0.42
409.00	0.42
410.00	0.42
411.00	0.42
412.00	0.41
413.00	0.41
414.00	0.41
415.00	0.41
416.00	0.40
417.00	0.40
418.00	0.40
419.00	0.40
420.00	0.39
421.00	0.39
422.00	0.39
423.00	0.39
424.00	0.38
425.00	0.38
426.00	0.38
427.00	0.38
428.00	0.38
429.00	0.37
430.00	0.37
431.00	0.37
432.00	0.37
433.00	0.37
434.00	0.37
435.00	0.37
436.00	0.37
437.00	0.37
438.00	0.36
439.00	0.37
440.00	0.36
441.00	0.36
442.00	0.36
443.00	0.36
444.00	0.36
445.00	0.36
446.00	0.36
447.00	0.36
448.00	0.36
449.00	0.36
450.00	0.36
451.00	0.36
452.00	0.36
453.00	0.35
454.00	0.35
455.00	0.35
456.00	0.35
457.00	0.35
458.00	0.35
459.00	0.35
460.00	0.34
461.00	0.34
462.00	0.34
463.00	0.34
464.00	0.34
465.00	0.34
466.00	0.34
467.00	0.33
468.00	0.33
469.00	0.33
470.00	0.33
471.00	0.33
472.00	0.33
473.00	0.33
474.00	0.33
475.00	0.33
476.00	0.33
477.00	0.33
478.00	0.32
479.00	0.32
480.00	0.32
481.00	0.32
482.00	0.32
483.00	0.32
484.00	0.32
485.00	0.32
486.00	0.32
487.00	0.32
488.00	0.32
489.00	0.32
490.00	0.32
491.00	0.32
492.00	0.32
493.00	0.32
494.00	0.32
495.00	0.32
496.00	0.32
497.00	0.32
498.00	0.32
499.00	0.32
500.00	0.32
501.00	0.32
502.00	0.32
503.00	0.32
504.00	0.32
505.00	0.32
506.00	0.32
507.00	0.32
508.00	0.32
509.00	0.32
510.00	0.32
511.00	0.32
512.00	0.31
513.00	0.31
514.00	0.31
515.00	0.31
516.00	0.31
517.00	0.31
518.00	0.31
519.00	0.31
520.00	0.31
521.00	0.30
522.00	0.30
523.00	0.30
524.00	0.30
525.00	0.30
526.00	0.30
527.00	0.30
528.00	0.30
529.00	0.30
530.00	0.30
531.00	0.30
532.00	0.30
533.00	0.30
534.00	0.30
535.00	0.30
536.00	0.30
537.00	0.30
538.00	0.30
539.00	0.30
540.00	0.30
541.00	0.30
542.00	0.30
543.00	0.30
544.00	0.30
545.00	0.30
546.00	0.30
547.00	0.30
548.00	0.31
549.00	0.31
550.00	0.31
551.00	0.31
552.00	0.31
553.00	0.31
554.00	0.31
555.00	0.31
556.00	0.31
557.00	0.31
558.00	0.31
559.00	0.31
560.00	0.30
561.00	0.30
562.00	0.30
563.00	0.30
564.00	0.30
565.00	0.30
566.00	0.30
567.00	0.30
568.00	0.30
569.00	0.30
570.00	0.30
571.00	0.30
572.00	0.29
573.00	0.29
574.00	0.29
575.00	0.29
576.00	0.29
577.00	0.29
578.00	0.29
579.00	0.29
580.00	0.29
581.00	0.29
582.00	0.29
583.00	0.29
584.00	0.29
585.00	0.29
586.00	0.29
587.00	0.29
588.00	0.29
589.00	0.29
590.00	0.29
591.00	0.29
592.00	0.29
593.00	0.29
594.00	0.29
595.00	0.29
596.00	0.29
597.00	0.29
598.00	0.29
599.00	0.29
600.00	0.29
601.00	0.29
602.00	0.29
603.00	0.29
604.00	0.29
605.00	0.29
606.00	0.29
607.00	0.29
608.00	0.29
609.00	0.29
610.00	0.28
611.00	0.28
612.00	0.28
613.00	0.28
614.00	0.28
615.00	0.28
616.00	0.28
617.00	0.28
618.00	0.28
619.00	0.28
620.00	0.27
621.00	0.27
622.00	0.27
623.00	0.27
624.00	0.27
625.00	0.27
626.00	0.27
627.00	0.27
628.00	0.27
629.00	0.27
630.00	0.28
631.00	0.28
632.00	0.28
633.00	0.28
634.00	0.28
635.00	0.28
636.00	0.28
637.00	0.28
638.00	0.28
639.00	0.28
640.00	0.28
641.00	0.28
642.00	0.28
643.00	0.28
644.00	0.28
645.00	0.29
646.00	0.29
647.00	0.29
648.00	0.29
649.00	0.29
650.00	0.29
651.00	0.29
652.00	0.29
653.00	0.29
654.00	0.28
655.00	0.28
656.00	0.28
657.00	0.28
658.00	0.28
659.00	0.28
660.00	0.28
661.00	0.28
662.00	0.28
663.00	0.28
664.00	0.28
665.00	0.28
666.00	0.28
667.00	0.28
668.00	0.28
669.00	0.28
670.00	0.28
671.00	0.28
672.00	0.27
673.00	0.27
674.00	0.27
675.00	0.27
676.00	0.27
677.00	0.27
678.00	0.27
679.00	0.27
680.00	0.27
681.00	0.27
682.00	0.27
683.00	0.27
684.00	0.27
685.00	0.27
686.00	0.27
687.00	0.27
688.00	0.27
689.00	0.27
690.00	0.27
691.00	0.27
692.00	0.27
693.00	0.27
694.00	0.27
695.00	0.26
696.00	0.26
697.00	0.26
698.00	0.26
699.00	0.26
700.00	0.26
701.00	0.26
702.00	0.26
703.00	0.26
704.00	0.26
705.00	0.26
706.00	0.26
707.00	0.27
708.00	0.27
709.00	0.27
710.00	0.27
711.00	0.27
712.00	0.27
713.00	0.27
714.00	0.27
715.00	0.28
716.00	0.28
717.00	0.28
718.00	0.28
719.00	0.28
720.00	0.28
721.00	0.28
722.00	0.28
723.00	0.29
724.00	0.29
725.00	0.29
726.00	0.29
727.00	0.29
728.00	0.29
729.00	0.29
730.00	0.29
731.00	0.29
732.00	0.29
733.00	0.29
734.00	0.29
735.00	0.29
736.00	0.28
737.00	0.28
738.00	0.28
739.00	0.28
740.00	0.28
741.00	0.28
742.00	0.28
743.00	0.28
744.00	0.28
745.00	0.28
746.00	0.28
747.00	0.27
748.00	0.27
749.00	0.27
750.00	0.27
751.00	0.27
752.00	0.27
753.00	0.27
754.00	0.27
755.00	0.27
756.00	0.27
757.00	0.27
758.00	0.27
759.00	0.26
760.00	0.26
761.00	0.26
762.00	0.26
763.00	0.26
764.00	0.26
765.00	0.26
766.00	0.26
767.00	0.26
768.00	0.26
769.00	0.26
770.00	0.26
771.00	0.26
772.00	0.26
773.00	0.26
774.00	0.26
775.00	0.26
776.00	0.26
777.00	0.26
778.00	0.26
779.00	0.26
780.00	0.26
781.00	0.26
782.00	0.26
783.00	0.26
784.00	0.26
785.00	0.26
786.00	0.26
787.00	0.26
788.00	0.26
789.00	0.26
790.00	0.26
791.00	0.26
792.00	0.26
793.00	0.26
794.00	0.26
795.00	0.26
796.00	0.26
797.00	0.27
798.00	0.26
799.00	0.26
800.00	0.26
801.00	0.26
802.00	0.26
803.00	0.26
804.00	0.26
805.00	0.26
806.00	0.26
807.00	0.26
808.00	0.26
809.00	0.26
810.00	0.26
811.00	0.26
812.00	0.26
813.00	0.26
814.00	0.26
815.00	0.25
816.00	0.25
817.00	0.25
818.00	0.25
819.00	0.25
820.00	0.25
821.00	0.25
822.00	0.25
823.00	0.25
824.00	0.24
825.00	0.24
826.00	0.24
827.00	0.24
828.00	0.24
829.00	0.24
830.00	0.24
831.00	0.24
832.00	0.24
833.00	0.23
834.00	0.23
835.00	0.23
836.00	0.23
837.00	0.23
838.00	0.23
839.00	0.23
840.00	0.23
841.00	0.23
842.00	0.23
843.00	0.23
844.00	0.23
845.00	0.23
846.00	0.23
847.00	0.23
848.00	0.22
849.00	0.22
850.00	0.22
851.00	0.22
852.00	0.22
853.00	0.22
854.00	0.22
855.00	0.22
856.00	0.22
857.00	0.22
858.00	0.22
859.00	0.22
860.00	0.22
861.00	0.22
862.00	0.22
863.00	0.22
864.00	0.22
865.00	0.22
866.00	0.22
867.00	0.22
868.00	0.22
869.00	0.22
870.00	0.22
871.00	0.22
872.00	0.22
873.00	0.22
874.00	0.22
875.00	0.22
876.00	0.22
877.00	0.21
878.00	0.22
879.00	0.22
880.00	0.22
881.00	0.22
882.00	0.22
883.00	0.21
884.00	0.22
885.00	0.21
886.00	0.21
887.00	0.21
888.00	0.21
889.00	0.20
890.00	0.21
891.00	0.20
892.00	0.20
893.00	0.20
894.00	0.20
895.00	0.21
896.00	0.20
897.00	0.20
898.00	0.20
899.00	0.21
900.00	0.20
901.00	0.20
902.00	0.20
903.00	0.20
904.00	0.20
905.00	0.20
906.00	0.20
907.00	0.20
908.00	0.20
909.00	0.20
910.00	0.20
911.00	0.20
912.00	0.20
913.00	0.20
914.00	0.20
915.00	0.20
916.00	0.20
917.00	0.20
918.00	0.20
919.00	0.20
920.00	0.20
921.00	0.20
922.00	0.20
923.00	0.19
924.00	0.19
925.00	0.19
926.00	0.19
927.00	0.19
928.00	0.19
929.00	0.19
930.00	0.19
931.00	0.19
932.00	0.19
933.00	0.19
934.00	0.19
935.00	0.19
936.00	0.19
937.00	0.19
938.00	0.19
939.00	0.19
940.00	0.20
941.00	0.20
942.00	0.20
943.00	0.20
944.00	0.20
945.00	0.20
946.00	0.20
947.00	0.20
948.00	0.20
949.00	0.20
950.00	0.20
951.00	0.20
952.00	0.20
953.00	0.20
954.00	0.20
955.00	0.20
956.00	0.20
957.00	0.20
958.00	0.20
959.00	0.20
960.00	0.20
961.00	0.20
962.00	0.20
963.00	0.20
964.00	0.20
965.00	0.20
966.00	0.20
967.00	0.20
968.00	0.20
969.00	0.20
970.00	0.20
971.00	0.20
972.00	0.20
973.00	0.20
974.00	0.20
975.00	0.20
976.00	0.20
977.00	0.20
978.00	0.20
979.00	0.20
980.00	0.20
981.00	0.20
982.00	0.20
983.00	0.20
984.00	0.19
985.00	0.19
986.00	0.19
987.00	0.19
988.00	0.19
989.00	0.19
990.00	0.19
991.00	0.19
992.00	0.19
993.00	0.19
994.00	0.19
995.00	0.19
996.00	0.19
997.00	0.19
998.00	0.19
999.00	0.19
1000.00	0.19
1001.00	0.19
1002.00	0.19
1003.00	0.19
1004.00	0.19
1005.00	0.19
1006.00	0.19
1007.00	0.19
1008.00	0.19
1009.00	0.19
1010.00	0.19
1011.00	0.19
1012.00	0.19
1013.00	0.20
1014.00	0.20
1015.00	0.20
1016.00	0.20
1017.00	0.20
1018.00	0.20
1019.00	0.20
1020.00	0.20
1021.00	0.20
1022.00	0.20
1023.00	0.20
1024.00	0.20
1025.00	0.20
1026.00	0.20
1027.00	0.20
1028.00	0.20
1029.00	0.20
1030.00	0.20
1031.00	0.20
1032.00	0.20
1033.00	0.20
1034.00	0.20
1035.00	0.20
1036.00	0.20
1037.00	0.20
1038.00	0.20
1039.00	0.20
1040.00	0.20
1041.00	0.20
1042.00	0.20
1043.00	0.20
1044.00	0.20
1045.00	0.20
1046.00	0.20
1047.00	0.20
1048.00	0.20
1049.00	0.20
1050.00	0.20
1051.00	0.20
1052.00	0.20
1053.00	0.20
1054.00	0.20
1055.00	0.20
1056.00	0.20
1057.00	0.20
1058.00	0.20
1059.00	0.20
1060.00	0.20
1061.00	0.20
1062.00	0.20
1063.00	0.20
1064.00	0.20
1065.00	0.20
1066.00	0.20
1067.00	0.20
1068.00	0.20
1069.00	0.20
1070.00	0.20
1071.00	0.20
1072.00	0.20
1073.00	0.20
1074.00	0.20
1075.00	0.20
1076.00	0.20
1077.00	0.20
1078.00	0.20
1079.00	0.20
1080.00	0.20
1081.00	0.20
1082.00	0.20
1083.00	0.20
1084.00	0.20
1085.00	0.20
1086.00	0.20
1087.00	0.20
1088.00	0.20
1089.00	0.20
1090.00	0.21
1091.00	0.21
1092.00	0.21
1093.00	0.21
1094.00	0.21
1095.00	0.21
1096.00	0.22
1097.00	0.22
1098.00	0.22
1099.00	0.22
1100.00	0.22
1101.00	0.23
1102.00	0.23
1103.00	0.23
1104.00	0.23
1105.00	0.23
1106.00	0.24
1107.00	0.24
1108.00	0.24
1109.00	0.24
1110.00	0.24
1111.00	0.24
1112.00	0.24
1113.00	0.24
1114.00	0.24
1115.00	0.24
1116.00	0.25
1117.00	0.25
1118.00	0.25
1119.00	0.25
1120.00	0.25
1121.00	0.25
1122.00	0.25
1123.00	0.25
1124.00	0.25
1125.00	0.25
1126.00	0.24
1127.00	0.24
1128.00	0.24
1129.00	0.24
1130.00	0.24
1131.00	0.24
1132.00	0.24
1133.00	0.24
1134.00	0.23
1135.00	0.23
1136.00	0.23
1137.00	0.23
1138.00	0.23
1139.00	0.23
1140.00	0.23
1141.00	0.23
1142.00	0.23
1143.00	0.23
1144.00	0.23
1145.00	0.23
1146.00	0.23
1147.00	0.23
1148.00	0.23
1149.00	0.23
1150.00	0.23
1151.00	0.23
1152.00	0.23
1153.00	0.23
1154.00	0.23
1155.00	0.23
1156.00	0.23
1157.00	0.23
1158.00	0.23
1159.00	0.23
1160.00	0.23
1161.00	0.23
1162.00	0.23
1163.00	0.23
1164.00	0.23
1165.00	0.24
1166.00	0.24
1167.00	0.24
1168.00	0.24
1169.00	0.24
1170.00	0.24
1171.00	0.24
1172.00	0.24
1173.00	0.24
1174.00	0.24
1175.00	0.24
1176.00	0.24
1177.00	0.24
1178.00	0.24
1179.00	0.24
1180.00	0.24
1181.00	0.23
1182.00	0.23
1183.00	0.23
1184.00	0.23
1185.00	0.23
1186.00	0.23
1187.00	0.23
1188.00	0.23
1189.00	0.23
1190.00	0.23
1191.00	0.22
1192.00	0.22
1193.00	0.22
1194.00	0.22
1195.00	0.22
1196.00	0.22
1197.00	0.22
1198.00	0.22
1199.00	0.22
1200.00	0.22
1201.00	0.22
1202.00	0.22
1203.00	0.22
1204.00	0.22
1205.00	0.22
1206.00	0.22
1207.00	0.22
1208.00	0.22
1209.00	0.22
1210.00	0.22
1211.00	0.22
1212.00	0.22
1213.00	0.22
1214.00	0.21
1215.00	0.21
1216.00	0.21
1217.00	0.21
1218.00	0.21
1219.00	0.21
1220.00	0.21
1221.00	0.21
1222.00	0.21
1223.00	0.22
1224.00	0.22
1225.00	0.22
1226.00	0.22
1227.00	0.22
1228.00	0.22
1229.00	0.22
1230.00	0.22
1231.00	0.22
1232.00	0.22
1233.00	0.23
1234.00	0.23
1235.00	0.23
1236.00	0.23
1237.00	0.23
1238.00	0.24
1239.00	0.24
1240.00	0.24
1241.00	0.24
1242.00	0.25
1243.00	0.25
1244.00	0.25
1245.00	0.25
1246.00	0.25
1247.00	0.25
1248.00	0.25
1249.00	0.25
1250.00	0.25
1251.00	0.25
1252.00	0.25
1253.00	0.25
1254.00	0.25
1255.00	0.25
1256.00	0.25
1257.00	0.25
1258.00	0.25
1259.00	0.25
1260.00	0.25
1261.00	0.26
1262.00	0.26
1263.00	0.26
1264.00	0.26
1265.00	0.26
1266.00	0.26
1267.00	0.26
1268.00	0.26
1269.00	0.26
1270.00	0.25
1271.00	0.25
1272.00	0.25
1273.00	0.25
1274.00	0.25
1275.00	0.25
1276.00	0.25
1277.00	0.24
1278.00	0.24
1279.00	0.24
1280.00	0.24
1281.00	0.24
1282.00	0.24
1283.00	0.24
1284.00	0.24
1285.00	0.24
1286.00	0.24
1287.00	0.24
1288.00	0.24
1289.00	0.23
1290.00	0.23
1291.00	0.23
1292.00	0.23
1293.00	0.23
1294.00	0.23
1295.00	0.23
1296.00	0.23
1297.00	0.23
1298.00	0.23
1299.00	0.23
1300.00	0.23
1301.00	0.23
1302.00	0.23
1303.00	0.23
1304.00	0.23
1305.00	0.23
1306.00	0.23
1307.00	0.23
1308.00	0.23
1309.00	0.23
1310.00	0.23
1311.00	0.23
1312.00	0.23
1313.00	0.23
1314.00	0.23
1315.00	0.23
1316.00	0.23
1317.00	0.23
1318.00	0.23
1319.00	0.23
1320.00	0.23
1321.00	0.23
1322.00	0.23
1323.00	0.23
1324.00	0.23
1325.00	0.23
1326.00	0.22
1327.00	0.22
1328.00	0.22
1329.00	0.22
1330.00	0.22
1331.00	0.22
1332.00	0.22
1333.00	0.22
1334.00	0.22
1335.00	0.22
1336.00	0.22
1337.00	0.22
1338.00	0.22
1339.00	0.22
1340.00	0.22
1341.00	0.22
1342.00	0.21
1343.00	0.21
1344.00	0.21
1345.00	0.21
1346.00	0.21
1347.00	0.21
1348.00	0.21
1349.00	0.21
1350.00	0.21
359.00	3.57
358.00	3.59
357.00	3.61
356.00	3.63
355.00	3.65
354.00	3.67
353.00	3.68
352.00	3.70
351.00	3.71
350.00	3.73
349.00	3.74
348.00	3.76
347.00	3.77
346.00	3.78
345.00	3.80
344.00	3.82
343.00	3.84
342.00	3.85
341.00	3.88
340.00	3.90
339.00	3.93
338.00	3.95
337.00	3.99
336.00	4.02
335.00	4.06
334.00	4.10
333.00	4.14
332.00	4.19
331.00	4.23
330.00	4.27
329.00	4.32
328.00	4.36
327.00	4.41
326.00	4.45
325.00	4.49
324.00	4.53
323.00	4.57
322.00	4.61
321.00	4.64
320.00	4.68
319.00	4.72
318.00	4.81
317.00	4.84
316.00	4.87
315.00	4.90
314.00	4.93
313.00	4.96
312.00	4.99
311.00	5.01
310.00	5.04
309.00	5.07
308.00	5.09
307.00	5.12
306.00	5.15
305.00	5.17
304.00	5.20
303.00	5.22
302.00	5.24
301.00	5.26
300.00	5.28
299.00	5.30
298.00	5.31
297.00	5.32
296.00	5.33
295.00	5.34
294.00	5.34
293.00	5.35
292.00	5.35
291.00	5.36
290.00	5.37
289.00	5.37
288.00	5.38
287.00	5.39
286.00	5.40
285.00	5.41
284.00	5.43
283.00	5.44
282.00	5.46
281.00	5.47
280.00	5.49
279.00	5.51
278.00	5.53
277.00	5.54
276.00	5.55
275.00	5.56
274.00	5.57
273.00	5.57
272.00	5.57
271.00	5.56
270.00	5.55
269.00	5.54
268.00	5.53
267.00	5.52
266.00	5.51
265.00	5.51
264.00	5.50
263.00	5.49
262.00	5.49
261.00	5.49
260.00	5.49
259.00	5.49
258.00	5.50
257.00	5.51
256.00	5.52
255.00	5.54
254.00	5.56
253.00	5.58
252.00	5.61
251.00	5.64
250.00	5.68
249.00	5.72
248.00	5.76
247.00	5.81
246.00	5.86
245.00	5.92
244.00	5.97
243.00	6.03
242.00	6.09
241.00	6.15
240.00	6.21
239.00	6.27
238.00	6.32
237.00	6.37
236.00	6.41
235.00	6.45
234.00	6.49
233.00	6.51
232.00	6.53
231.00	6.54
230.00	6.53
229.00	6.52
228.00	6.50
227.00	6.47
226.00	6.43
225.00	6.38
224.00	6.32
223.00	6.26
222.00	6.18
221.00	6.09
220.00	6.00
219.00	5.90
218.00	5.80
217.00	5.69
216.00	5.59
215.00	5.48
214.00	5.37
213.00	5.27
212.00	5.17
211.00	5.07
210.00	4.98
209.00	4.89
208.00	4.81
207.00	4.73
206.00	4.65
205.00	4.59
204.00	4.53
203.00	4.47
202.00	4.43
201.00	4.39
200.00	4.35
