PE UV       SUBTECH     SPECTRUM    ASCII       PEDS        4.00        	
-1	
normSep184-2-p5sds-1xdil2.asc	
12/6/2007	
44:50.0	
12/6/2007	
16:40.0	
Analyst	
	
200	
1	
Lambda 950	
950N7030103	
PerkinElmer UV WinLab 6.0.3.0730 / 1.61.00 Lambda 900	
	
0	
0	
3350/servo 860.8/2	
0	
0	
UV/VIS	
1	
1	
1	
"RBeamAtt,SBeamAtt,uv/vis/nir detector"	
0	
0	
0	
0	
Program	
Program	
3350/servo 860.8/2	
3350/0.2 860.8/0.2	
3350/0.2 860.8/0.2	
0	
1	
 	
 	
 	
0	
 	
860.8	
319.2	
860.8	
Front	
100	
 	
S:100 R:100	
 	
0	
0	
0	
 	
0	
 	
 	
 	
0	
 	
 	
0	
0	
0	
0	
0	
 	
 	
 	
 	
0	
0	
	
	
#HDR	
-1	
-1	
#GR	
nm	
A	
1	
0	
1350	
-1	
1151	
8	
6.537811	
0.084725	
#DATA	
360	0.4301
361	0.4311
362	0.4273
363	0.423
364	0.4207
365	0.4204
366	0.4199
367	0.4176
368	0.4174
369	0.414
370	0.4144
371	0.4139
372	0.4124
373	0.4119
374	0.4098
375	0.4083
376	0.4054
377	0.4029
378	0.4014
379	0.397
380	0.3965
381	0.3932
382	0.3904
383	0.388
384	0.3867
385	0.3849
386	0.3815
387	0.3804
388	0.3786
389	0.3766
390	0.3748
391	0.3735
392	0.3716
393	0.3714
394	0.3722
395	0.3724
396	0.3701
397	0.3698
398	0.372
399	0.3694
400	0.3672
401	0.3666
402	0.3664
403	0.3633
404	0.3622
405	0.3613
406	0.3595
407	0.3589
408	0.3571
409	0.3555
410	0.3518
411	0.3515
412	0.3502
413	0.3466
414	0.3475
415	0.3452
416	0.3441
417	0.3429
418	0.3407
419	0.3404
420	0.3391
421	0.3383
422	0.3374
423	0.3364
424	0.3364
425	0.3361
426	0.3349
427	0.3345
428	0.3344
429	0.335
430	0.3345
431	0.3351
432	0.3349
433	0.3348
434	0.3331
435	0.3348
436	0.3333
437	0.3321
438	0.3322
439	0.3307
440	0.3287
441	0.3273
442	0.3253
443	0.3242
444	0.3219
445	0.3208
446	0.3198
447	0.3184
448	0.3163
449	0.3156
450	0.3157
451	0.3147
452	0.314
453	0.3131
454	0.313
455	0.3133
456	0.3128
457	0.3139
458	0.3147
459	0.3137
460	0.3149
461	0.3147
462	0.3147
463	0.3146
464	0.314
465	0.3123
466	0.3112
467	0.3098
468	0.3082
469	0.3059
470	0.3053
471	0.3052
472	0.3036
473	0.3024
474	0.302
475	0.301
476	0.3018
477	0.2997
478	0.2998
479	0.2993
480	0.2985
481	0.2983
482	0.2985
483	0.298
484	0.298
485	0.2981
486	0.2965
487	0.296
488	0.2952
489	0.2941
490	0.2927
491	0.2925
492	0.2924
493	0.2903
494	0.2896
495	0.2878
496	0.2869
497	0.2856
498	0.2848
499	0.284
500	0.2826
501	0.282
502	0.2823
503	0.2818
504	0.2804
505	0.2804
506	0.28
507	0.2809
508	0.2803
509	0.2806
510	0.2799
511	0.2802
512	0.2798
513	0.2796
514	0.2795
515	0.2801
516	0.2792
517	0.2787
518	0.2781
519	0.2776
520	0.2759
521	0.2756
522	0.2746
523	0.2734
524	0.2722
525	0.2707
526	0.2693
527	0.2687
528	0.2674
529	0.2676
530	0.2671
531	0.2661
532	0.2655
533	0.2643
534	0.2625
535	0.2621
536	0.2624
537	0.2607
538	0.2596
539	0.2595
540	0.2601
541	0.2585
542	0.2587
543	0.2581
544	0.2583
545	0.2565
546	0.2566
547	0.2555
548	0.2554
549	0.2551
550	0.2544
551	0.2541
552	0.2532
553	0.2519
554	0.2517
555	0.2512
556	0.2498
557	0.2485
558	0.2486
559	0.248
560	0.247
561	0.2471
562	0.2462
563	0.2466
564	0.2455
565	0.245
566	0.2443
567	0.2434
568	0.2435
569	0.2435
570	0.2422
571	0.2418
572	0.2422
573	0.2415
574	0.2417
575	0.2415
576	0.2409
577	0.2404
578	0.2398
579	0.2405
580	0.2398
581	0.2401
582	0.2393
583	0.2396
584	0.239
585	0.2388
586	0.2383
587	0.2386
588	0.2382
589	0.2381
590	0.2384
591	0.2379
592	0.2383
593	0.2386
594	0.2384
595	0.2374
596	0.2375
597	0.2375
598	0.2373
599	0.2381
600	0.2378
601	0.2377
602	0.2377
603	0.238
604	0.2389
605	0.2379
606	0.2377
607	0.238
608	0.2379
609	0.238
610	0.2376
611	0.2374
612	0.2378
613	0.2375
614	0.2377
615	0.239
616	0.2383
617	0.2387
618	0.2392
619	0.2388
620	0.2394
621	0.2389
622	0.2392
623	0.2401
624	0.2396
625	0.2395
626	0.2401
627	0.2398
628	0.2398
629	0.24
630	0.2404
631	0.2413
632	0.2416
633	0.2418
634	0.2422
635	0.2421
636	0.2426
637	0.2427
638	0.2433
639	0.2441
640	0.2441
641	0.2456
642	0.2445
643	0.2449
644	0.245
645	0.2452
646	0.2454
647	0.2466
648	0.2456
649	0.2463
650	0.2465
651	0.2463
652	0.2462
653	0.2459
654	0.2464
655	0.2452
656	0.2449
657	0.2441
658	0.244
659	0.2438
660	0.244
661	0.2432
662	0.2422
663	0.242
664	0.2419
665	0.2413
666	0.2404
667	0.2397
668	0.2395
669	0.2384
670	0.2381
671	0.2376
672	0.2364
673	0.2358
674	0.2356
675	0.236
676	0.2359
677	0.2355
678	0.2349
679	0.235
680	0.2349
681	0.235
682	0.2349
683	0.2332
684	0.2334
685	0.2323
686	0.232
687	0.2324
688	0.2328
689	0.2323
690	0.231
691	0.2314
692	0.2302
693	0.2302
694	0.2296
695	0.2299
696	0.229
697	0.2282
698	0.2272
699	0.2273
700	0.2261
701	0.2238
702	0.2237
703	0.2222
704	0.2204
705	0.2193
706	0.2179
707	0.2174
708	0.2154
709	0.2145
710	0.2128
711	0.2124
712	0.2117
713	0.2101
714	0.2095
715	0.2083
716	0.2074
717	0.2054
718	0.2048
719	0.2028
720	0.2029
721	0.2026
722	0.2016
723	0.2007
724	0.1995
725	0.1998
726	0.1994
727	0.1983
728	0.1973
729	0.1976
730	0.1966
731	0.1967
732	0.1967
733	0.1955
734	0.1952
735	0.1944
736	0.1944
737	0.1929
738	0.1933
739	0.1918
740	0.1924
741	0.1916
742	0.1915
743	0.1913
744	0.19
745	0.1896
746	0.1889
747	0.1886
748	0.188
749	0.1876
750	0.1869
751	0.1869
752	0.1855
753	0.185
754	0.1842
755	0.1843
756	0.1833
757	0.183
758	0.1836
759	0.1827
760	0.1836
761	0.182
762	0.18
763	0.1818
764	0.1818
765	0.1796
766	0.179
767	0.1781
768	0.179
769	0.1792
770	0.1781
771	0.1786
772	0.1782
773	0.1781
774	0.1779
775	0.1774
776	0.1766
777	0.1758
778	0.1776
779	0.1779
780	0.1776
781	0.1761
782	0.1763
783	0.176
784	0.1764
785	0.1763
786	0.1761
787	0.1765
788	0.1766
789	0.1767
790	0.1767
791	0.1747
792	0.177
793	0.1773
794	0.1768
795	0.1756
796	0.1764
797	0.1752
798	0.1765
799	0.1776
800	0.1766
801	0.1783
802	0.1758
803	0.1768
804	0.1758
805	0.1749
806	0.1759
807	0.1777
808	0.177
809	0.1767
810	0.1777
811	0.1783
812	0.1794
813	0.1792
814	0.1785
815	0.1762
816	0.1791
817	0.1785
818	0.1785
819	0.1769
820	0.1783
821	0.1783
822	0.1785
823	0.1786
824	0.1798
825	0.1812
826	0.1812
827	0.1812
828	0.1826
829	0.1811
830	0.1815
831	0.1821
832	0.1826
833	0.1819
834	0.1847
835	0.183
836	0.1837
837	0.1836
838	0.1852
839	0.1856
840	0.1866
841	0.1851
842	0.1858
843	0.1874
844	0.1875
845	0.1879
846	0.1869
847	0.1871
848	0.1862
849	0.189
850	0.1866
851	0.1895
852	0.1885
853	0.1884
854	0.1896
855	0.191
856	0.1896
857	0.1897
858	0.1905
859	0.1903
860	0.1904
861	0.1928
862	0.1956
863	0.1924
864	0.1908
865	0.1902
866	0.1901
867	0.1942
868	0.1965
869	0.1965
870	0.1927
871	0.1908
872	0.1934
873	0.198
874	0.1967
875	0.1946
876	0.2002
877	0.1986
878	0.1976
879	0.1965
880	0.1951
881	0.1945
882	0.198
883	0.2016
884	0.2006
885	0.1932
886	0.1974
887	0.2025
888	0.2072
889	0.2036
890	0.2058
891	0.2074
892	0.2064
893	0.2069
894	0.2092
895	0.1971
896	0.2059
897	0.2113
898	0.2095
899	0.209
900	0.2093
901	0.22585
902	0.22615
903	0.22641
904	0.22684
905	0.22707
906	0.22738
907	0.2277
908	0.22793
909	0.2283
910	0.22867
911	0.22907
912	0.22939
913	0.22999
914	0.23038
915	0.23081
916	0.23126
917	0.23156
918	0.23214
919	0.23266
920	0.23304
921	0.23337
922	0.23387
923	0.2345
924	0.23518
925	0.23562
926	0.23623
927	0.23663
928	0.23707
929	0.23761
930	0.23796
931	0.23846
932	0.23873
933	0.23913
934	0.2394
935	0.24001
936	0.24008
937	0.24043
938	0.24071
939	0.24091
940	0.24111
941	0.24136
942	0.24142
943	0.24167
944	0.24161
945	0.24155
946	0.24163
947	0.24142
948	0.24131
949	0.24107
950	0.24072
951	0.24045
952	0.24014
953	0.2398
954	0.23952
955	0.23913
956	0.23864
957	0.23815
958	0.23767
959	0.23713
960	0.23656
961	0.23603
962	0.23525
963	0.23453
964	0.23401
965	0.23339
966	0.2326
967	0.23189
968	0.23126
969	0.23047
970	0.22973
971	0.22902
972	0.2283
973	0.22761
974	0.22692
975	0.22613
976	0.22538
977	0.22468
978	0.22395
979	0.22327
980	0.2226
981	0.22198
982	0.22132
983	0.22073
984	0.22011
985	0.21943
986	0.21882
987	0.21832
988	0.21774
989	0.21724
990	0.21673
991	0.21614
992	0.21556
993	0.21507
994	0.21453
995	0.21397
996	0.21336
997	0.21287
998	0.21234
999	0.21178
1000	0.21123
1001	0.21076
1002	0.21014
1003	0.20966
1004	0.20912
1005	0.20859
1006	0.20797
1007	0.20731
1008	0.20677
1009	0.20618
1010	0.20553
1011	0.20485
1012	0.20432
1013	0.20376
1014	0.20315
1015	0.20247
1016	0.2017
1017	0.20097
1018	0.2003
1019	0.19972
1020	0.19889
1021	0.19805
1022	0.1972
1023	0.1963
1024	0.19553
1025	0.19479
1026	0.19404
1027	0.19312
1028	0.19219
1029	0.19135
1030	0.19053
1031	0.1895
1032	0.18862
1033	0.18767
1034	0.18673
1035	0.18576
1036	0.18474
1037	0.18381
1038	0.18271
1039	0.18168
1040	0.18062
1041	0.1796
1042	0.17857
1043	0.17747
1044	0.17641
1045	0.17542
1046	0.17447
1047	0.17336
1048	0.17232
1049	0.17132
1050	0.17035
1051	0.16934
1052	0.1684
1053	0.16747
1054	0.16656
1055	0.16568
1056	0.16479
1057	0.16388
1058	0.16296
1059	0.16207
1060	0.16126
1061	0.16039
1062	0.15964
1063	0.15882
1064	0.15807
1065	0.15739
1066	0.15669
1067	0.15606
1068	0.1554
1069	0.15463
1070	0.15399
1071	0.15329
1072	0.15258
1073	0.15195
1074	0.15138
1075	0.15079
1076	0.15021
1077	0.14957
1078	0.14892
1079	0.14833
1080	0.1478
1081	0.14726
1082	0.14662
1083	0.14609
1084	0.14558
1085	0.145
1086	0.14441
1087	0.14384
1088	0.14325
1089	0.14269
1090	0.14214
1091	0.14161
1092	0.14115
1093	0.14065
1094	0.14013
1095	0.13966
1096	0.13908
1097	0.13848
1098	0.13802
1099	0.13756
1100	0.13702
1101	0.13655
1102	0.13612
1103	0.13566
1104	0.1352
1105	0.13479
1106	0.13437
1107	0.13392
1108	0.13345
1109	0.13308
1110	0.1326
1111	0.13215
1112	0.13179
1113	0.13136
1114	0.13096
1115	0.13059
1116	0.13022
1117	0.12986
1118	0.12953
1119	0.12915
1120	0.1288
1121	0.12845
1122	0.12805
1123	0.12773
1124	0.12741
1125	0.12702
1126	0.12669
1127	0.12642
1128	0.12605
1129	0.12578
1130	0.12547
1131	0.12519
1132	0.1249
1133	0.12461
1134	0.12435
1135	0.12402
1136	0.12368
1137	0.12343
1138	0.12315
1139	0.12288
1140	0.12265
1141	0.12239
1142	0.12211
1143	0.12183
1144	0.1216
1145	0.12137
1146	0.12115
1147	0.12092
1148	0.12069
1149	0.12045
1150	0.1202
1151	0.12001
1152	0.11981
1153	0.11964
1154	0.11941
1155	0.11923
1156	0.11905
1157	0.11881
1158	0.11861
1159	0.11853
1160	0.11839
1161	0.11824
1162	0.11814
1163	0.11802
1164	0.11784
1165	0.11767
1166	0.11754
1167	0.11747
1168	0.1174
1169	0.11732
1170	0.11722
1171	0.11713
1172	0.11709
1173	0.11707
1174	0.11703
1175	0.11697
1176	0.11692
1177	0.11689
1178	0.11681
1179	0.11673
1180	0.11671
1181	0.11667
1182	0.11659
1183	0.11648
1184	0.11643
1185	0.11639
1186	0.11633
1187	0.11627
1188	0.11622
1189	0.11615
1190	0.11607
1191	0.11602
1192	0.11596
1193	0.11591
1194	0.11587
1195	0.11582
1196	0.11574
1197	0.11569
1198	0.11568
1199	0.11567
1200	0.11558
1201	0.11552
1202	0.11551
1203	0.11551
1204	0.11552
1205	0.11548
1206	0.11545
1207	0.11544
1208	0.11541
1209	0.11541
1210	0.11544
1211	0.11546
1212	0.11546
1213	0.11546
1214	0.11549
1215	0.11549
1216	0.11549
1217	0.11552
1218	0.1155
1219	0.11546
1220	0.11548
1221	0.11552
1222	0.11556
1223	0.11556
1224	0.11554
1225	0.11554
1226	0.11555
1227	0.11559
1228	0.11564
1229	0.11569
1230	0.11572
1231	0.11574
1232	0.11575
1233	0.11574
1234	0.11575
1235	0.11576
1236	0.11582
1237	0.11585
1238	0.11588
1239	0.1159
1240	0.11589
1241	0.11589
1242	0.11591
1243	0.11593
1244	0.11595
1245	0.116
1246	0.11607
1247	0.1161
1248	0.11609
1249	0.1161
1250	0.11614
1251	0.11618
1252	0.11616
1253	0.11613
1254	0.11617
1255	0.11622
1256	0.11626
1257	0.11629
1258	0.11628
1259	0.11627
1260	0.11628
1261	0.11632
1262	0.11636
1263	0.11642
1264	0.11646
1265	0.11647
1266	0.11649
1267	0.11651
1268	0.11653
1269	0.11656
1270	0.11659
1271	0.11661
1272	0.11665
1273	0.11672
1274	0.11678
1275	0.1168
1276	0.11681
1277	0.11679
1278	0.11682
1279	0.11689
1280	0.11695
1281	0.11699
1282	0.11703
1283	0.11711
1284	0.11715
1285	0.11716
1286	0.11719
1287	0.11725
1288	0.11734
1289	0.11739
1290	0.11739
1291	0.1174
1292	0.11745
1293	0.11751
1294	0.11758
1295	0.11764
1296	0.11767
1297	0.11771
1298	0.11779
1299	0.11786
1300	0.1179
1301	0.11794
1302	0.11796
1303	0.11803
1304	0.11813
1305	0.1182
1306	0.11826
1307	0.11831
1308	0.11838
1309	0.11845
1310	0.11853
1311	0.11858
1312	0.11862
1313	0.11868
1314	0.11874
1315	0.11879
1316	0.11885
1317	0.11896
1318	0.11908
1319	0.11917
1320	0.11925
1321	0.11933
1322	0.11944
1323	0.11955
1324	0.11962
1325	0.11968
1326	0.11975
1327	0.11983
1328	0.11994
1329	0.12007
1330	0.12018
1331	0.12022
1332	0.12026
1333	0.12034
1334	0.12045
1335	0.12055
1336	0.12063
1337	0.1207
1338	0.12079
1339	0.12086
1340	0.12094
1341	0.12102
1342	0.1211
1343	0.12118
1344	0.12123
1345	0.12126
1346	0.12136
1347	0.12146
1348	0.12146
1349	0.12144
1350	0.12151
359	3.570824
358	3.589063
357	3.61048
356	3.631873
355	3.648922
354	3.666884
353	3.682637
352	3.701548
351	3.714045
350	3.7287
349	3.743392
348	3.756864
347	3.768634
346	3.78383
345	3.800391
344	3.818091
343	3.835251
342	3.854651
341	3.87576
340	3.899052
339	3.927462
338	3.954415
337	3.987988
336	4.024678
335	4.058975
334	4.101184
333	4.143668
332	4.185334
331	4.231391
330	4.271674
329	4.318196
328	4.360709
327	4.406599
326	4.448095
325	4.488933
324	4.531202
323	4.570908
322	4.608352
321	4.641926
320	4.677187
319	4.721118
318	4.810628
317	4.840306
316	4.870607
315	4.901169
314	4.930389
313	4.959454
312	4.986349
311	5.01409
310	5.041856
309	5.067624
308	5.092725
307	5.120232
306	5.146184
305	5.170673
304	5.195161
303	5.220147
302	5.241529
301	5.261557
300	5.281512
299	5.296402
298	5.308903
297	5.318424
296	5.327081
295	5.335322
294	5.341914
293	5.347658
292	5.353374
291	5.36041
290	5.367192
289	5.373527
288	5.380803
287	5.391136
286	5.401979
285	5.413062
284	5.425061
283	5.438679
282	5.455091
281	5.473934
280	5.49176
279	5.509686
278	5.526217
277	5.541068
276	5.554948
275	5.564461
274	5.569998
273	5.570553
272	5.567869
271	5.562418
270	5.553966
269	5.544405
268	5.534609
267	5.524249
266	5.514038
265	5.505328
264	5.498405
263	5.492422
262	5.489295
261	5.48869
260	5.490594
259	5.493973
258	5.498767
257	5.507341
256	5.519764
255	5.536346
254	5.556256
253	5.579176
252	5.605624
251	5.638577
250	5.675995
249	5.716525
248	5.760886
247	5.809208
246	5.861024
245	5.915206
244	5.972516
243	6.030455
242	6.089435
241	6.150154
240	6.211638
239	6.268017
238	6.318868
237	6.366983
236	6.412737
235	6.453677
234	6.487093
233	6.512007
232	6.529735
231	6.537811
230	6.534003
229	6.522498
228	6.501547
227	6.470603
226	6.430533
225	6.381635
224	6.323123
223	6.255253
222	6.177704
221	6.092004
220	6.000486
219	5.902417
218	5.799593
217	5.693579
216	5.585996
215	5.479078
214	5.374225
213	5.271132
212	5.170475
211	5.072773
210	4.979715
209	4.891306
208	4.807951
207	4.728377
206	4.654333
205	4.58823
204	4.525766
203	4.470547
202	4.42693
201	4.386412
200	4.354705
